<?xml version="1.0" encoding="UTF-8" standalone="no"?>
<svg
   xmlns:ns2="http://ns.adobe.com/Extensibility/1.0/"
   xmlns:ns1="http://ns.adobe.com/Flows/1.0/"
   xmlns:i="http://ns.adobe.com/AdobeIllustrator/10.0/"
   xmlns:dc="http://purl.org/dc/elements/1.1/"
   xmlns:cc="http://creativecommons.org/ns#"
   xmlns:rdf="http://www.w3.org/1999/02/22-rdf-syntax-ns#"
   xmlns:svg="http://www.w3.org/2000/svg"
   xmlns="http://www.w3.org/2000/svg"
   xmlns:xlink="http://www.w3.org/1999/xlink"
   xmlns:sodipodi="http://sodipodi.sourceforge.net/DTD/sodipodi-0.dtd"
   xmlns:inkscape="http://www.inkscape.org/namespaces/inkscape"
   width="210mm"
   height="148mm"
   viewBox="0 0 210 148"
   version="1.1"
   id="svg8"
   inkscape:version="1.0 (4035a4fb49, 2020-05-01)"
   sodipodi:docname="array_map.svg">
  <defs
     id="defs2">
    <marker
       inkscape:isstock="true"
       style="overflow:visible"
       id="marker2790"
       refX="0.0"
       refY="0.0"
       orient="auto"
       inkscape:stockid="SquareM">
      <path
         transform="scale(0.4)"
         style="fill-rule:evenodd;stroke:#000000;stroke-width:1pt;stroke-opacity:1;fill:#000000;fill-opacity:1"
         d="M -5.0,-5.0 L -5.0,5.0 L 5.0,5.0 L 5.0,-5.0 L -5.0,-5.0 z "
         id="path2788" />
    </marker>
    <marker
       inkscape:isstock="true"
       style="overflow:visible"
       id="marker2780"
       refX="0.0"
       refY="0.0"
       orient="auto"
       inkscape:stockid="SquareM">
      <path
         transform="scale(0.4)"
         style="fill-rule:evenodd;stroke:#000000;stroke-width:1pt;stroke-opacity:1;fill:#000000;fill-opacity:1"
         d="M -5.0,-5.0 L -5.0,5.0 L 5.0,5.0 L 5.0,-5.0 L -5.0,-5.0 z "
         id="path2778" />
    </marker>
    <inkscape:path-effect
       hide_knots="false"
       only_selected="false"
       apply_with_radius="true"
       apply_no_radius="true"
       use_knot_distance="true"
       flexible="false"
       chamfer_steps="1"
       radius="13"
       mode="F"
       method="auto"
       unit="px"
       satellites_param="F,0,0,1,0,0,0,1 @ F,0,0,1,0,3.4395833,0,1 @ F,0,0,1,0,3.4395833,0,1 @ F,0,0,1,0,3.4395833,0,1 @ F,0,0,1,0,3.4395833,0,1 @ F,0,0,1,0,0,0,1"
       lpeversion="1"
       is_visible="true"
       id="path-effect2776"
       effect="fillet_chamfer" />
    <marker
       inkscape:collect="always"
       inkscape:stockid="SquareM"
       orient="auto"
       refY="0.0"
       refX="0.0"
       id="marker2534"
       style="overflow:visible"
       inkscape:isstock="true">
      <path
         id="path2532"
         d="M -5.0,-5.0 L -5.0,5.0 L 5.0,5.0 L 5.0,-5.0 L -5.0,-5.0 z "
         style="fill-rule:evenodd;stroke:#000000;stroke-width:1pt;stroke-opacity:1;fill:#000000;fill-opacity:1"
         transform="scale(0.4)" />
    </marker>
    <marker
       inkscape:collect="always"
       inkscape:stockid="SquareM"
       orient="auto"
       refY="0.0"
       refX="0.0"
       id="marker2524"
       style="overflow:visible"
       inkscape:isstock="true">
      <path
         id="path2522"
         d="M -5.0,-5.0 L -5.0,5.0 L 5.0,5.0 L 5.0,-5.0 L -5.0,-5.0 z "
         style="fill-rule:evenodd;stroke:#000000;stroke-width:1pt;stroke-opacity:1;fill:#000000;fill-opacity:1"
         transform="scale(0.4)" />
    </marker>
    <inkscape:path-effect
       effect="fillet_chamfer"
       id="path-effect2520"
       is_visible="true"
       lpeversion="1"
       satellites_param="F,0,0,1,0,0,0,1 @ F,0,0,1,0,3.4395833,0,1 @ F,0,0,1,0,3.4395833,0,1 @ F,0,0,1,0,3.4395833,0,1 @ F,0,0,1,0,3.4395833,0,1 @ F,0,0,1,0,0,0,1"
       unit="px"
       method="auto"
       mode="F"
       radius="13"
       chamfer_steps="1"
       flexible="false"
       use_knot_distance="true"
       apply_no_radius="true"
       apply_with_radius="true"
       only_selected="false"
       hide_knots="false" />
    <marker
       inkscape:collect="always"
       inkscape:isstock="true"
       style="overflow:visible"
       id="marker2046"
       refX="0.0"
       refY="0.0"
       orient="auto"
       inkscape:stockid="SquareM">
      <path
         transform="scale(0.4)"
         style="fill-rule:evenodd;stroke:#000000;stroke-width:1pt;stroke-opacity:1;fill:#000000;fill-opacity:1"
         d="M -5.0,-5.0 L -5.0,5.0 L 5.0,5.0 L 5.0,-5.0 L -5.0,-5.0 z "
         id="path2044" />
    </marker>
    <marker
       inkscape:collect="always"
       inkscape:isstock="true"
       style="overflow:visible"
       id="marker2036"
       refX="0.0"
       refY="0.0"
       orient="auto"
       inkscape:stockid="SquareM">
      <path
         transform="scale(0.4)"
         style="fill-rule:evenodd;stroke:#000000;stroke-width:1pt;stroke-opacity:1;fill:#000000;fill-opacity:1"
         d="M -5.0,-5.0 L -5.0,5.0 L 5.0,5.0 L 5.0,-5.0 L -5.0,-5.0 z "
         id="path2034" />
    </marker>
    <inkscape:path-effect
       hide_knots="false"
       only_selected="false"
       apply_with_radius="true"
       apply_no_radius="true"
       use_knot_distance="true"
       flexible="false"
       chamfer_steps="1"
       radius="13"
       mode="F"
       method="auto"
       unit="px"
       satellites_param="F,0,0,1,0,0,0,1 @ F,0,0,1,0,3.4395833,0,1 @ F,0,0,1,0,3.4395833,0,1 @ F,0,0,1,0,3.4395833,0,1 @ F,0,0,1,0,3.4395833,0,1 @ F,0,0,1,0,0,0,1"
       lpeversion="1"
       is_visible="true"
       id="path-effect2028"
       effect="fillet_chamfer" />
    <inkscape:path-effect
       effect="fillet_chamfer"
       id="path-effect2026"
       is_visible="true"
       lpeversion="1"
       satellites_param="F,0,0,1,0,0,0,1 @ F,0,0,1,0,3.4395833,0,1 @ F,0,0,1,0,3.4395833,0,1 @ F,0,0,1,0,3.4395833,0,1 @ F,0,0,1,0,3.4395833,0,1 @ F,0,0,1,0,0,0,1"
       unit="px"
       method="auto"
       mode="F"
       radius="13"
       chamfer_steps="1"
       flexible="false"
       use_knot_distance="true"
       apply_no_radius="true"
       apply_with_radius="true"
       only_selected="false"
       hide_knots="false" />
    <inkscape:path-effect
       hide_knots="false"
       only_selected="false"
       apply_with_radius="true"
       apply_no_radius="true"
       use_knot_distance="true"
       flexible="false"
       chamfer_steps="1"
       radius="13"
       mode="F"
       method="auto"
       unit="px"
       satellites_param="F,0,0,1,0,0,0,1 @ F,0,0,1,0,3.4395833,0,1 @ F,0,0,1,0,3.4395833,0,1 @ F,0,0,1,0,3.4395833,0,1 @ F,0,0,1,0,3.4395833,0,1 @ F,0,0,1,0,0,0,1"
       lpeversion="1"
       is_visible="true"
       id="path-effect2024"
       effect="fillet_chamfer" />
    <inkscape:path-effect
       hide_knots="false"
       only_selected="false"
       apply_with_radius="true"
       apply_no_radius="true"
       use_knot_distance="true"
       flexible="false"
       chamfer_steps="1"
       radius="9"
       mode="F"
       method="auto"
       unit="px"
       satellites_param="F,0,0,1,0,0,0,1 @ F,0,0,1,0,2.38125,0,1 @ F,0,0,1,0,2.38125,0,1"
       lpeversion="1"
       is_visible="true"
       id="path-effect2022"
       effect="fillet_chamfer" />
    <inkscape:path-effect
       effect="fillet_chamfer"
       id="path-effect2020"
       is_visible="true"
       lpeversion="1"
       satellites_param="F,0,0,1,0,0,0,1 @ F,0,0,1,0,2.38125,0,1 @ F,0,0,1,0,2.38125,0,1"
       unit="px"
       method="auto"
       mode="F"
       radius="9"
       chamfer_steps="1"
       flexible="false"
       use_knot_distance="true"
       apply_no_radius="true"
       apply_with_radius="true"
       only_selected="false"
       hide_knots="false" />
    <inkscape:path-effect
       hide_knots="false"
       only_selected="false"
       apply_with_radius="true"
       apply_no_radius="true"
       use_knot_distance="true"
       flexible="false"
       chamfer_steps="1"
       radius="9"
       mode="F"
       method="auto"
       unit="px"
       satellites_param="F,0,0,1,0,0,0,1 @ F,0,0,1,0,2.38125,0,1 @ F,0,0,1,0,2.38125,0,1"
       lpeversion="1"
       is_visible="true"
       id="path-effect2018"
       effect="fillet_chamfer" />
    <inkscape:path-effect
       only_selected="false"
       apply_with_weight="true"
       apply_no_weight="true"
       helper_size="0"
       steps="2"
       weight="33.333333"
       lpeversion="1"
       is_visible="true"
       id="path-effect1465"
       effect="bspline" />
    <marker
       inkscape:collect="always"
       inkscape:stockid="SquareM"
       orient="auto"
       refY="0.0"
       refX="0.0"
       id="marker3503"
       style="overflow:visible"
       inkscape:isstock="true">
      <path
         id="path3501"
         d="M -5.0,-5.0 L -5.0,5.0 L 5.0,5.0 L 5.0,-5.0 L -5.0,-5.0 z "
         style="fill-rule:evenodd;stroke:#000000;stroke-width:1pt;stroke-opacity:1;fill:#000000;fill-opacity:1"
         transform="scale(0.4)" />
    </marker>
    <marker
       inkscape:collect="always"
       inkscape:stockid="SquareM"
       orient="auto"
       refY="0.0"
       refX="0.0"
       id="marker3493"
       style="overflow:visible"
       inkscape:isstock="true">
      <path
         id="path3491"
         d="M -5.0,-5.0 L -5.0,5.0 L 5.0,5.0 L 5.0,-5.0 L -5.0,-5.0 z "
         style="fill-rule:evenodd;stroke:#000000;stroke-width:1pt;stroke-opacity:1;fill:#000000;fill-opacity:1"
         transform="scale(0.4)" />
    </marker>
    <inkscape:path-effect
       effect="fillet_chamfer"
       id="path-effect3489"
       is_visible="true"
       lpeversion="1"
       satellites_param="F,0,0,1,0,0,0,1 @ F,0,0,1,0,3.4395833,0,1 @ F,0,0,1,0,3.4395833,0,1 @ F,0,0,1,0,3.4395833,0,1 @ F,0,0,1,0,3.4395833,0,1 @ F,0,0,1,0,0,0,1"
       unit="px"
       method="auto"
       mode="F"
       radius="13"
       chamfer_steps="1"
       flexible="false"
       use_knot_distance="true"
       apply_no_radius="true"
       apply_with_radius="true"
       only_selected="false"
       hide_knots="false" />
    <marker
       inkscape:collect="always"
       inkscape:isstock="true"
       style="overflow:visible"
       id="marker3207"
       refX="0.0"
       refY="0.0"
       orient="auto"
       inkscape:stockid="SquareM">
      <path
         transform="scale(0.4)"
         style="fill-rule:evenodd;stroke:#000000;stroke-width:1pt;stroke-opacity:1;fill:#000000;fill-opacity:1"
         d="M -5.0,-5.0 L -5.0,5.0 L 5.0,5.0 L 5.0,-5.0 L -5.0,-5.0 z "
         id="path3205" />
    </marker>
    <marker
       inkscape:collect="always"
       inkscape:isstock="true"
       style="overflow:visible"
       id="marker3197"
       refX="0.0"
       refY="0.0"
       orient="auto"
       inkscape:stockid="SquareM">
      <path
         transform="scale(0.4)"
         style="fill-rule:evenodd;stroke:#000000;stroke-width:1pt;stroke-opacity:1;fill:#000000;fill-opacity:1"
         d="M -5.0,-5.0 L -5.0,5.0 L 5.0,5.0 L 5.0,-5.0 L -5.0,-5.0 z "
         id="path3195" />
    </marker>
    <inkscape:path-effect
       hide_knots="false"
       only_selected="false"
       apply_with_radius="true"
       apply_no_radius="true"
       use_knot_distance="true"
       flexible="false"
       chamfer_steps="1"
       radius="13"
       mode="F"
       method="auto"
       unit="px"
       satellites_param="F,0,0,1,0,0,0,1 @ F,0,0,1,0,3.4395833,0,1 @ F,0,0,1,0,3.4395833,0,1 @ F,0,0,1,0,3.4395833,0,1 @ F,0,0,1,0,3.4395833,0,1 @ F,0,0,1,0,0,0,1"
       lpeversion="1"
       is_visible="true"
       id="path-effect3193"
       effect="fillet_chamfer" />
    <inkscape:path-effect
       effect="fillet_chamfer"
       id="path-effect3165"
       is_visible="true"
       lpeversion="1"
       satellites_param="F,0,0,1,0,0,0,1 @ F,0,0,1,0,3.4395833,0,1 @ F,0,0,1,0,3.4395833,0,1 @ F,0,0,1,0,3.4395833,0,1 @ F,0,0,1,0,3.4395833,0,1 @ F,0,0,1,0,0,0,1"
       unit="px"
       method="auto"
       mode="F"
       radius="13"
       chamfer_steps="1"
       flexible="false"
       use_knot_distance="true"
       apply_no_radius="true"
       apply_with_radius="true"
       only_selected="false"
       hide_knots="false" />
    <marker
       inkscape:collect="always"
       inkscape:stockid="SquareM"
       orient="auto"
       refY="0.0"
       refX="0.0"
       id="SquareM"
       style="overflow:visible"
       inkscape:isstock="true">
      <path
         id="path1028"
         d="M -5.0,-5.0 L -5.0,5.0 L 5.0,5.0 L 5.0,-5.0 L -5.0,-5.0 z "
         style="fill-rule:evenodd;stroke:#000000;stroke-width:1pt;stroke-opacity:1;fill:#000000;fill-opacity:1"
         transform="scale(0.4)" />
    </marker>
    <marker
       inkscape:isstock="true"
       style="overflow:visible;"
       id="marker2451"
       refX="0.0"
       refY="0.0"
       orient="auto"
       inkscape:stockid="Arrow1Mend"
       inkscape:collect="always">
      <path
         transform="scale(0.4) rotate(180) translate(10,0)"
         style="fill-rule:evenodd;stroke:#000000;stroke-width:1pt;stroke-opacity:1;fill:#000000;fill-opacity:1"
         d="M 0.0,0.0 L 5.0,-5.0 L -12.5,0.0 L 5.0,5.0 L 0.0,0.0 z "
         id="path2449" />
    </marker>
    <marker
       inkscape:isstock="true"
       style="overflow:visible;"
       id="marker2357"
       refX="0.0"
       refY="0.0"
       orient="auto"
       inkscape:stockid="Arrow1Mend">
      <path
         transform="scale(0.4) rotate(180) translate(10,0)"
         style="fill-rule:evenodd;stroke:#000000;stroke-width:1pt;stroke-opacity:1;fill:#000000;fill-opacity:1"
         d="M 0.0,0.0 L 5.0,-5.0 L -12.5,0.0 L 5.0,5.0 L 0.0,0.0 z "
         id="path2355" />
    </marker>
    <marker
       inkscape:stockid="Arrow1Mend"
       orient="auto"
       refY="0.0"
       refX="0.0"
       id="marker2257"
       style="overflow:visible;"
       inkscape:isstock="true"
       inkscape:collect="always">
      <path
         id="path2255"
         d="M 0.0,0.0 L 5.0,-5.0 L -12.5,0.0 L 5.0,5.0 L 0.0,0.0 z "
         style="fill-rule:evenodd;stroke:#000000;stroke-width:1pt;stroke-opacity:1;fill:#000000;fill-opacity:1"
         transform="scale(0.4) rotate(180) translate(10,0)" />
    </marker>
    <marker
       inkscape:stockid="Arrow1Mend"
       orient="auto"
       refY="0.0"
       refX="0.0"
       id="marker1923"
       style="overflow:visible;"
       inkscape:isstock="true"
       inkscape:collect="always">
      <path
         id="path1921"
         d="M 0.0,0.0 L 5.0,-5.0 L -12.5,0.0 L 5.0,5.0 L 0.0,0.0 z "
         style="fill-rule:evenodd;stroke:#000000;stroke-width:1pt;stroke-opacity:1;fill:#000000;fill-opacity:1"
         transform="scale(0.4) rotate(180) translate(10,0)" />
    </marker>
    <inkscape:path-effect
       effect="fillet_chamfer"
       id="path-effect1919"
       is_visible="true"
       lpeversion="1"
       satellites_param="F,0,0,1,0,0,0,1 @ F,0,0,1,0,2.38125,0,1 @ F,0,0,1,0,2.38125,0,1"
       unit="px"
       method="auto"
       mode="F"
       radius="9"
       chamfer_steps="1"
       flexible="false"
       use_knot_distance="true"
       apply_no_radius="true"
       apply_with_radius="true"
       only_selected="false"
       hide_knots="false" />
    <marker
       inkscape:isstock="true"
       style="overflow:visible;"
       id="marker1811"
       refX="0.0"
       refY="0.0"
       orient="auto"
       inkscape:stockid="Arrow1Mend"
       inkscape:collect="always">
      <path
         transform="scale(0.4) rotate(180) translate(10,0)"
         style="fill-rule:evenodd;stroke:#000000;stroke-width:1pt;stroke-opacity:1;fill:#000000;fill-opacity:1"
         d="M 0.0,0.0 L 5.0,-5.0 L -12.5,0.0 L 5.0,5.0 L 0.0,0.0 z "
         id="path1809" />
    </marker>
    <inkscape:path-effect
       hide_knots="false"
       only_selected="false"
       apply_with_radius="true"
       apply_no_radius="true"
       use_knot_distance="true"
       flexible="false"
       chamfer_steps="1"
       radius="9"
       mode="F"
       method="auto"
       unit="px"
       satellites_param="F,0,0,1,0,0,0,1 @ F,0,0,1,0,2.38125,0,1 @ F,0,0,1,0,2.38125,0,1"
       lpeversion="1"
       is_visible="true"
       id="path-effect1807"
       effect="fillet_chamfer" />
    <inkscape:path-effect
       effect="fillet_chamfer"
       id="path-effect1791"
       is_visible="true"
       lpeversion="1"
       satellites_param="F,0,0,1,0,0,0,1 @ F,0,0,1,0,2.38125,0,1 @ F,0,0,1,0,2.38125,0,1"
       unit="px"
       method="auto"
       mode="F"
       radius="9"
       chamfer_steps="1"
       flexible="false"
       use_knot_distance="true"
       apply_no_radius="true"
       apply_with_radius="true"
       only_selected="false"
       hide_knots="false" />
    <marker
       inkscape:stockid="Arrow1Mend"
       orient="auto"
       refY="0.0"
       refX="0.0"
       id="Arrow1Mend"
       style="overflow:visible;"
       inkscape:isstock="true"
       inkscape:collect="always">
      <path
         id="path964"
         d="M 0.0,0.0 L 5.0,-5.0 L -12.5,0.0 L 5.0,5.0 L 0.0,0.0 z "
         style="fill-rule:evenodd;stroke:#000000;stroke-width:1pt;stroke-opacity:1;fill:#000000;fill-opacity:1"
         transform="scale(0.4) rotate(180) translate(10,0)" />
    </marker>
  </defs>
  <sodipodi:namedview
     id="base"
     pagecolor="#ffffff"
     bordercolor="#666666"
     borderopacity="1.0"
     inkscape:pageopacity="0.0"
     inkscape:pageshadow="2"
     inkscape:zoom="1.0547579"
     inkscape:cx="398.40566"
     inkscape:cy="353.28954"
     inkscape:document-units="mm"
     inkscape:current-layer="g2016"
     inkscape:document-rotation="0"
     showgrid="false"
     inkscape:pagecheckerboard="false"
     inkscape:showpageshadow="false"
     inkscape:snap-midpoints="true"
     inkscape:snap-intersection-paths="true"
     inkscape:snap-bbox="false"
     inkscape:snap-object-midpoints="true"
     inkscape:connector-spacing="5"
     inkscape:window-width="2505"
     inkscape:window-height="1377"
     inkscape:window-x="55"
     inkscape:window-y="27"
     inkscape:window-maximized="1" />
  <metadata
     id="metadata5">
    <rdf:RDF>
      <cc:Work
         rdf:about="">
        <dc:format>image/svg+xml</dc:format>
        <dc:type
           rdf:resource="http://purl.org/dc/dcmitype/StillImage" />
        <dc:title />
      </cc:Work>
    </rdf:RDF>
  </metadata>
  <g
     sodipodi:insensitive="true"
     inkscape:label="group"
     inkscape:groupmode="layer"
     id="layer1"
     style="display:inline;mix-blend-mode:normal">
    <path
       id="rect938"
       style="opacity:0.997231;fill:none;stroke:#000000;stroke-width:0.529167;stroke-miterlimit:4;stroke-dasharray:none"
       d="M 90.351167,20.891233 H 20.357 l -10,-2.33e-4 -3.06e-4,-10 79.994473,2.33e-4"
       sodipodi:nodetypes="ccccc" />
    <path
       sodipodi:nodetypes="ccccc"
       d="m 95.352,38.466887 h -59.995 -10 v -10 h 69.995"
       style="opacity:0.997231;fill:none;stroke:#000000;stroke-width:0.529167;stroke-miterlimit:4;stroke-dasharray:none"
       id="path941" />
    <path
       id="path943"
       style="opacity:0.997231;fill:none;stroke:#000000;stroke-width:0.529167;stroke-miterlimit:4;stroke-dasharray:none"
       d="M 100.35283,56.042541 H 50.357 h -10 v -10 h 59.99583"
       sodipodi:nodetypes="ccccc" />
    <path
       sodipodi:nodetypes="cccc"
       d="m 75.357,63.618195 h 10 v 10 h -10"
       style="opacity:0.997231;fill:none;stroke:#000000;stroke-width:0.529167;stroke-miterlimit:4;stroke-dasharray:none"
       id="path945" />
    <path
       id="path949"
       style="opacity:0.997231;fill:none;stroke:#000000;stroke-width:0.529167;stroke-miterlimit:4;stroke-dasharray:none"
       d="m 65.357,63.618195 h 10 v 10 h -10"
       sodipodi:nodetypes="cccc" />
    <path
       sodipodi:nodetypes="ccccc"
       d="m 65.357,73.618195 h -10 v -10 h 10 z"
       style="opacity:0.997231;fill:none;stroke:#000000;stroke-width:0.529167;stroke-miterlimit:4;stroke-dasharray:none"
       id="path951" />
    <path
       style="opacity:0.997231;fill:none;stroke:#000000;stroke-width:0.529167;stroke-linecap:butt;stroke-linejoin:miter;stroke-miterlimit:4;stroke-dasharray:none;stroke-opacity:1;marker-end:url(#Arrow1Mend)"
       d="M 15.357,20.891233 V 31.08575 a 2.38125,2.38125 45 0 0 2.38125,2.38125 h 6.239089"
       id="path1449"
       sodipodi:nodetypes="ccc"
       inkscape:path-effect="#path-effect1791"
       inkscape:original-d="M 15.357,20.891233 V 33.467 h 8.620339" />
    <path
       inkscape:original-d="m 45.357,56.042541 v 12.575767 h 8.620339"
       inkscape:path-effect="#path-effect1807"
       sodipodi:nodetypes="ccc"
       id="path1805"
       d="m 45.357,56.042541 v 10.194517 a 2.38125,2.38125 45 0 0 2.38125,2.38125 h 6.239089"
       style="opacity:0.997231;fill:none;stroke:#000000;stroke-width:0.529167;stroke-linecap:butt;stroke-linejoin:miter;stroke-miterlimit:4;stroke-dasharray:none;stroke-opacity:1;marker-end:url(#marker1811)" />
    <path
       style="opacity:0.997231;fill:none;stroke:#000000;stroke-width:0.529167;stroke-linecap:butt;stroke-linejoin:miter;stroke-miterlimit:4;stroke-dasharray:none;stroke-opacity:1;marker-end:url(#marker1923)"
       d="m 30.357,38.466887 v 10.194517 a 2.38125,2.38125 45 0 0 2.38125,2.38125 h 6.239089"
       id="path1917"
       sodipodi:nodetypes="ccc"
       inkscape:path-effect="#path-effect1919"
       inkscape:original-d="m 30.357,38.466887 v 12.575767 h 8.620339" />
    <path
       style="opacity:0.997231;fill:none;stroke:#000000;stroke-width:0.529167;stroke-linecap:butt;stroke-linejoin:miter;stroke-miterlimit:4;stroke-dasharray:none;stroke-opacity:1"
       d="m 20.357,20.891233 v -10"
       id="path2049"
       sodipodi:nodetypes="cc" />
    <path
       sodipodi:nodetypes="cc"
       id="path2111"
       d="m 30.356167,20.891233 v -10"
       style="opacity:0.997231;fill:none;stroke:#000000;stroke-width:0.529167;stroke-linecap:butt;stroke-linejoin:miter;stroke-miterlimit:4;stroke-dasharray:none;stroke-opacity:1" />
    <path
       style="opacity:0.997231;fill:none;stroke:#000000;stroke-width:0.529167;stroke-linecap:butt;stroke-linejoin:miter;stroke-miterlimit:4;stroke-dasharray:none;stroke-opacity:1"
       d="m 40.355333,20.891233 v -10"
       id="path2113"
       sodipodi:nodetypes="cc" />
    <path
       sodipodi:nodetypes="cc"
       id="path2115"
       d="m 50.3545,20.891233 v -10"
       style="opacity:0.997231;fill:none;stroke:#000000;stroke-width:0.529167;stroke-linecap:butt;stroke-linejoin:miter;stroke-miterlimit:4;stroke-dasharray:none;stroke-opacity:1" />
    <path
       style="opacity:0.997231;fill:none;stroke:#000000;stroke-width:0.529167;stroke-linecap:butt;stroke-linejoin:miter;stroke-miterlimit:4;stroke-dasharray:none;stroke-opacity:1"
       d="m 60.353667,20.891233 v -10"
       id="path2117"
       sodipodi:nodetypes="cc" />
    <path
       sodipodi:nodetypes="cc"
       id="path2119"
       d="m 70.352833,20.891233 v -10"
       style="opacity:0.997231;fill:none;stroke:#000000;stroke-width:0.529167;stroke-linecap:butt;stroke-linejoin:miter;stroke-miterlimit:4;stroke-dasharray:none;stroke-opacity:1" />
    <path
       style="opacity:0.997231;fill:none;stroke:#000000;stroke-width:0.529167;stroke-linecap:butt;stroke-linejoin:miter;stroke-miterlimit:4;stroke-dasharray:none;stroke-opacity:1"
       d="m 80.352,20.891233 v -10"
       id="path2121"
       sodipodi:nodetypes="cc" />
    <path
       sodipodi:nodetypes="cc"
       id="path2123"
       d="m 90.351167,20.891233 v -10"
       style="opacity:0.997231;fill:none;stroke:#000000;stroke-width:0.529167;stroke-linecap:butt;stroke-linejoin:miter;stroke-miterlimit:4;stroke-dasharray:0.529167, 0.529167;stroke-dashoffset:0;stroke-opacity:1" />
    <path
       style="opacity:0.997231;fill:none;stroke:#000000;stroke-width:0.529167;stroke-linecap:butt;stroke-linejoin:miter;stroke-miterlimit:4;stroke-dasharray:0.529167, 0.529167;stroke-dashoffset:0;stroke-opacity:1"
       d="m 100.35033,20.891233 v -10"
       id="path2125"
       sodipodi:nodetypes="cc" />
    <path
       sodipodi:nodetypes="cc"
       id="path2127"
       d="m 110.3495,20.891233 v -10"
       style="opacity:0.997231;fill:none;stroke:#000000;stroke-width:0.529167;stroke-linecap:butt;stroke-linejoin:miter;stroke-miterlimit:4;stroke-dasharray:0.529167, 0.529167;stroke-dashoffset:0;stroke-opacity:1" />
    <path
       sodipodi:nodetypes="cc"
       id="path2145"
       d="m 35.357,38.466887 v -10"
       style="opacity:0.997231;fill:none;stroke:#000000;stroke-width:0.529167;stroke-linecap:butt;stroke-linejoin:miter;stroke-miterlimit:4;stroke-dasharray:none;stroke-opacity:1" />
    <path
       style="opacity:0.997231;fill:none;stroke:#000000;stroke-width:0.529167;stroke-linecap:butt;stroke-linejoin:miter;stroke-miterlimit:4;stroke-dasharray:none;stroke-opacity:1"
       d="m 45.356167,38.466887 v -10"
       id="path2147"
       sodipodi:nodetypes="cc" />
    <path
       sodipodi:nodetypes="cc"
       id="path2149"
       d="m 55.355333,38.466887 v -10"
       style="opacity:0.997231;fill:none;stroke:#000000;stroke-width:0.529167;stroke-linecap:butt;stroke-linejoin:miter;stroke-miterlimit:4;stroke-dasharray:none;stroke-opacity:1" />
    <path
       style="opacity:0.997231;fill:none;stroke:#000000;stroke-width:0.529167;stroke-linecap:butt;stroke-linejoin:miter;stroke-miterlimit:4;stroke-dasharray:none;stroke-opacity:1"
       d="m 65.3545,38.466887 v -10"
       id="path2151"
       sodipodi:nodetypes="cc" />
    <path
       sodipodi:nodetypes="cc"
       id="path2153"
       d="m 75.353667,38.466887 v -10"
       style="opacity:0.997231;fill:none;stroke:#000000;stroke-width:0.529167;stroke-linecap:butt;stroke-linejoin:miter;stroke-miterlimit:4;stroke-dasharray:none;stroke-opacity:1" />
    <path
       style="opacity:0.997231;fill:none;stroke:#000000;stroke-width:0.529167;stroke-linecap:butt;stroke-linejoin:miter;stroke-miterlimit:4;stroke-dasharray:none;stroke-opacity:1"
       d="m 85.352833,38.466887 v -10"
       id="path2155"
       sodipodi:nodetypes="cc" />
    <path
       sodipodi:nodetypes="cc"
       id="path2157"
       d="m 95.352,38.466887 v -10"
       style="opacity:0.997231;fill:none;stroke:#000000;stroke-width:0.529167;stroke-linecap:butt;stroke-linejoin:miter;stroke-miterlimit:4;stroke-dasharray:0.529167, 0.529167;stroke-dashoffset:0;stroke-opacity:1" />
    <path
       style="opacity:0.997231;fill:none;stroke:#000000;stroke-width:0.529167;stroke-linecap:butt;stroke-linejoin:miter;stroke-miterlimit:4;stroke-dasharray:0.529167, 0.529167;stroke-dashoffset:0;stroke-opacity:1"
       d="m 105.35117,38.466887 v -10"
       id="path2159"
       sodipodi:nodetypes="cc" />
    <path
       sodipodi:nodetypes="cc"
       id="path2161"
       d="m 115.35033,38.466887 v -10"
       style="opacity:0.997231;fill:none;stroke:#000000;stroke-width:0.529167;stroke-linecap:butt;stroke-linejoin:miter;stroke-miterlimit:4;stroke-dasharray:0.529167, 0.529167;stroke-dashoffset:0;stroke-opacity:1" />
    <path
       style="opacity:0.997231;fill:none;stroke:#000000;stroke-width:0.529167;stroke-linecap:butt;stroke-linejoin:miter;stroke-miterlimit:4;stroke-dasharray:none;stroke-opacity:1"
       d="m 50.357,56.042541 v -10"
       id="path2165"
       sodipodi:nodetypes="cc" />
    <path
       sodipodi:nodetypes="cc"
       id="path2167"
       d="m 60.356167,56.042541 v -10"
       style="opacity:0.997231;fill:none;stroke:#000000;stroke-width:0.529167;stroke-linecap:butt;stroke-linejoin:miter;stroke-miterlimit:4;stroke-dasharray:none;stroke-opacity:1" />
    <path
       style="opacity:0.997231;fill:none;stroke:#000000;stroke-width:0.529167;stroke-linecap:butt;stroke-linejoin:miter;stroke-miterlimit:4;stroke-dasharray:none;stroke-opacity:1"
       d="m 70.355333,56.042541 v -10"
       id="path2169"
       sodipodi:nodetypes="cc" />
    <path
       sodipodi:nodetypes="cc"
       id="path2171"
       d="m 80.3545,56.042541 v -10"
       style="opacity:0.997231;fill:none;stroke:#000000;stroke-width:0.529167;stroke-linecap:butt;stroke-linejoin:miter;stroke-miterlimit:4;stroke-dasharray:none;stroke-opacity:1" />
    <path
       style="opacity:0.997231;fill:none;stroke:#000000;stroke-width:0.529167;stroke-linecap:butt;stroke-linejoin:miter;stroke-miterlimit:4;stroke-dasharray:none;stroke-opacity:1"
       d="m 90.353667,56.042541 v -10"
       id="path2173"
       sodipodi:nodetypes="cc" />
    <path
       sodipodi:nodetypes="cc"
       id="path2175"
       d="m 100.35283,56.042541 v -10"
       style="opacity:0.997231;fill:none;stroke:#000000;stroke-width:0.529167;stroke-linecap:butt;stroke-linejoin:miter;stroke-miterlimit:4;stroke-dasharray:0.529167, 0.529167;stroke-dashoffset:0;stroke-opacity:1" />
    <path
       style="opacity:0.997231;fill:none;stroke:#000000;stroke-width:0.529167;stroke-linecap:butt;stroke-linejoin:miter;stroke-miterlimit:4;stroke-dasharray:0.529167, 0.529167;stroke-dashoffset:0;stroke-opacity:1"
       d="m 110.352,56.042541 v -10"
       id="path2177"
       sodipodi:nodetypes="cc" />
    <g
       id="g2241"
       transform="translate(10,5)"
       style="opacity:0.997231">
      <path
         sodipodi:nodetypes="cccc"
         d="M 65.357,103.6182 V 93.618195 h 10 V 103.6182"
         style="opacity:0.995;fill:none;stroke:#000000;stroke-width:0.529167;stroke-miterlimit:4;stroke-dasharray:none"
         id="path2189" />
      <path
         id="path2191"
         style="opacity:0.995;fill:none;stroke:#000000;stroke-width:0.529167;stroke-miterlimit:4;stroke-dasharray:none"
         d="m 65.357,113.6182 v -10 h 10 v 10"
         sodipodi:nodetypes="cccc" />
      <path
         sodipodi:nodetypes="ccccc"
         d="m 75.357,113.6182 v 10 h -10 v -10 z"
         style="opacity:0.995;fill:none;stroke:#000000;stroke-width:0.529167;stroke-miterlimit:4;stroke-dasharray:none"
         id="path2193" />
      <path
         id="path2219"
         style="opacity:0.995;fill:none;stroke:#000000;stroke-width:0.529167;stroke-miterlimit:4;stroke-dasharray:none"
         d="M 65.357,93.618195 V 83.61819 h 10 v 10.000005"
         sodipodi:nodetypes="cccc" />
    </g>
    <g
       id="g2235"
       transform="translate(13.41535,5)"
       style="opacity:0.997231">
      <path
         id="path2207"
         style="opacity:0.995;fill:none;stroke:#000000;stroke-width:0.529167;stroke-miterlimit:4;stroke-dasharray:none"
         d="M 81.94165,103.6182 V 93.618195 h 10 V 103.6182"
         sodipodi:nodetypes="cccc" />
      <path
         sodipodi:nodetypes="cccc"
         d="m 81.94165,113.6182 v -10 h 10 v 10"
         style="opacity:0.995;fill:none;stroke:#000000;stroke-width:0.529167;stroke-miterlimit:4;stroke-dasharray:none"
         id="path2209" />
      <path
         id="path2211"
         style="opacity:0.995;fill:none;stroke:#000000;stroke-width:0.529167;stroke-miterlimit:4;stroke-dasharray:none"
         d="m 91.94165,113.6182 v 10 h -10 v -10 z"
         sodipodi:nodetypes="ccccc" />
      <path
         sodipodi:nodetypes="cccc"
         d="M 81.94165,93.618195 V 83.61819 h 10 v 10.000005"
         style="opacity:0.995;fill:none;stroke:#000000;stroke-width:0.529167;stroke-miterlimit:4;stroke-dasharray:none"
         id="path2221" />
    </g>
    <g
       id="g2229"
       transform="translate(5.963835,5)"
       style="opacity:0.997231">
      <path
         sodipodi:nodetypes="cccc"
         d="M 49.393165,103.6182 V 93.618195 h 10 V 103.6182"
         style="opacity:0.995;fill:none;stroke:#000000;stroke-width:0.529167;stroke-miterlimit:4;stroke-dasharray:none"
         id="path2213" />
      <path
         id="path2215"
         style="opacity:0.995;fill:none;stroke:#000000;stroke-width:0.529167;stroke-miterlimit:4;stroke-dasharray:none"
         d="m 49.393165,113.6182 v -10 h 10 v 10"
         sodipodi:nodetypes="cccc" />
      <path
         sodipodi:nodetypes="ccccc"
         d="m 59.393165,113.6182 v 10 h -10 v -10 z"
         style="opacity:0.995;fill:none;stroke:#000000;stroke-width:0.529167;stroke-miterlimit:4;stroke-dasharray:none"
         id="path2217" />
      <path
         id="path2223"
         style="opacity:0.995;fill:none;stroke:#000000;stroke-width:0.529167;stroke-miterlimit:4;stroke-dasharray:none"
         d="M 49.393165,93.618195 V 83.61819 h 10 v 10.000005"
         sodipodi:nodetypes="cccc" />
    </g>
    <path
       style="opacity:0.997231;fill:none;stroke:#000000;stroke-width:0.529167;stroke-linecap:butt;stroke-linejoin:miter;stroke-miterlimit:4;stroke-dasharray:none;stroke-opacity:1;marker-end:url(#marker2257)"
       d="M 60.356998,73.618195 V 87.30124"
       id="path2243"
       sodipodi:nodetypes="cc" />
    <path
       style="opacity:0.997231;fill:none;stroke:#000000;stroke-width:0.529167;stroke-linecap:butt;stroke-linejoin:miter;stroke-miterlimit:4;stroke-dasharray:none;stroke-opacity:1;marker-end:url(#marker2357)"
       d="m 70.356999,73.618195 9.415459,12.947182"
       id="path2245"
       sodipodi:nodetypes="cc" />
    <path
       style="opacity:0.997231;fill:none;stroke:#000000;stroke-width:0.529167;stroke-linecap:butt;stroke-linejoin:miter;stroke-miterlimit:4;stroke-dasharray:none;stroke-opacity:1;marker-end:url(#marker2451)"
       d="M 80.357,73.618195 99.603613,86.784407"
       id="path2247"
       sodipodi:nodetypes="cc" />
    <path
       style="opacity:0.997231;fill:none;stroke:#000000;stroke-width:0.529167;stroke-linecap:butt;stroke-linejoin:miter;stroke-miterlimit:4;stroke-dasharray:1.05833, 1.05833;stroke-dashoffset:0;stroke-opacity:1;marker-start:url(#SquareM);marker-end:url(#SquareM)"
       d="m 60.357,128.618 v 6.56042 a 3.4395833,3.4395833 45 0 0 3.439583,3.43958 h 3.120834 A 3.4395833,3.4395833 135 0 0 70.357,135.17842 V 82.057583 A 3.4395833,3.4395833 135 0 1 73.796583,78.618 h 3.120834 A 3.4395833,3.4395833 45 0 1 80.357,82.057583 V 88.618"
       id="path2597"
       sodipodi:nodetypes="cccccc"
       inkscape:path-effect="#path-effect3165"
       inkscape:original-d="m 60.357,128.618 v 10 h 10 v -60 h 10 v 10" />
    <path
       inkscape:original-d="m 80.357,128.618 v 10 h 10 v -60 h 10 v 10"
       inkscape:path-effect="#path-effect3193"
       sodipodi:nodetypes="cccccc"
       id="path3191"
       d="m 80.357,128.618 v 6.56042 a 3.4395833,3.4395833 45 0 0 3.439583,3.43958 h 3.120834 A 3.4395833,3.4395833 135 0 0 90.357,135.17842 V 82.057583 A 3.4395833,3.4395833 135 0 1 93.796583,78.618 h 3.120834 A 3.4395833,3.4395833 45 0 1 100.357,82.057583 V 88.618"
       style="opacity:0.997231;fill:none;stroke:#000000;stroke-width:0.529167;stroke-linecap:butt;stroke-linejoin:miter;stroke-miterlimit:4;stroke-dasharray:1.05833, 1.05833;stroke-dashoffset:0;stroke-opacity:1;marker-start:url(#marker3197);marker-end:url(#marker3207)" />
    <path
       style="opacity:0.997231;fill:none;stroke:#000000;stroke-width:0.529167;stroke-linecap:butt;stroke-linejoin:miter;stroke-miterlimit:4;stroke-dasharray:1.05833, 1.05833;stroke-dashoffset:0;stroke-opacity:1;marker-start:url(#marker3493);marker-end:url(#marker3503)"
       d="m 100.357,128.618 v 6.56042 a 3.4395833,3.4395833 45 0 0 3.43958,3.43958 h 3.12084 a 3.4395833,3.4395833 135 0 0 3.43958,-3.43958 V 82.057583 A 3.4395833,3.4395833 135 0 1 113.79658,78.618 h 3.12084 a 3.4395833,3.4395833 45 0 1 3.43958,3.439583 V 88.618"
       id="path3487"
       sodipodi:nodetypes="cccccc"
       inkscape:path-effect="#path-effect3489"
       inkscape:original-d="m 100.357,128.618 v 10 h 10 v -60 h 10 v 10" />
    <path
       id="path3779"
       style="opacity:0.997231;fill:none;stroke:#000000;stroke-width:0.529167;stroke-miterlimit:4;stroke-dasharray:0.529167, 0.529167;stroke-dashoffset:0"
       d="M 115.357,108.6182 V 98.618195 h 10 V 108.6182"
       sodipodi:nodetypes="cccc" />
    <path
       sodipodi:nodetypes="cccc"
       d="M 115.357,98.618195 V 88.61819 h 10 v 10.000005"
       style="opacity:0.997231;fill:none;stroke:#000000;stroke-width:0.529167;stroke-miterlimit:4;stroke-dasharray:0.529167, 0.529167;stroke-dashoffset:0"
       id="path3785" />
    <path
       style="opacity:0.997231;fill:none;stroke:#000000;stroke-width:0.529167;stroke-linecap:butt;stroke-linejoin:miter;stroke-miterlimit:4;stroke-dasharray:0.529167, 0.529167;stroke-dashoffset:0;stroke-opacity:1"
       d="M 116.18359,10.891233 H 90.351167"
       id="path4055" />
    <path
       style="opacity:0.997231;fill:none;stroke:#000000;stroke-width:0.529167;stroke-linecap:butt;stroke-linejoin:miter;stroke-miterlimit:4;stroke-dasharray:0.529167, 0.529167;stroke-dashoffset:0;stroke-opacity:1"
       d="M 116.18359,20.891233 H 90.351167"
       id="path4057" />
    <path
       style="opacity:0.997231;fill:none;stroke:#000000;stroke-width:0.529167;stroke-linecap:butt;stroke-linejoin:miter;stroke-miterlimit:4;stroke-dasharray:0.529167, 0.529167;stroke-dashoffset:0;stroke-opacity:1"
       d="M 95.351998,28.466886 H 116.18359"
       id="path4061" />
    <path
       style="opacity:0.997231;fill:none;stroke:#000000;stroke-width:0.529167;stroke-linecap:butt;stroke-linejoin:miter;stroke-miterlimit:4;stroke-dasharray:0.529167, 0.529167;stroke-dashoffset:0;stroke-opacity:1"
       d="M 95.351998,38.466887 H 116.18359"
       id="path4063" />
    <path
       style="opacity:0.997231;fill:none;stroke:#000000;stroke-width:0.529167;stroke-linecap:butt;stroke-linejoin:miter;stroke-miterlimit:4;stroke-dasharray:0.529167, 0.529167;stroke-dashoffset:0;stroke-opacity:1"
       d="m 100.35283,46.04254 h 15.83076"
       id="path4065" />
    <path
       style="opacity:0.997231;fill:none;stroke:#000000;stroke-width:0.529167;stroke-linecap:butt;stroke-linejoin:miter;stroke-miterlimit:4;stroke-dasharray:0.529167, 0.529167;stroke-dashoffset:0;stroke-opacity:1"
       d="m 100.35283,56.042541 h 15.83076"
       id="path4067" />
    <text
       xml:space="preserve"
       style="font-style:normal;font-weight:normal;font-size:7.32623px;line-height:1.25;font-family:sans-serif;baseline-shift:baseline;fill:#000000;fill-opacity:1;stroke:none;stroke-width:0.161533"
       x="42.432331"
       y="52.283852"
       id="text3061"><tspan
         sodipodi:role="line"
         id="tspan3059"
         x="42.432331"
         y="52.283852"
         style="baseline-shift:baseline;stroke-width:0.161533">y<tspan
   style="font-size:4.76205px;baseline-shift:sub;stroke-width:0.161533"
   id="tspan3063">1</tspan></tspan></text>
    <text
       id="text3123"
       y="52.283852"
       x="52.432331"
       style="font-style:normal;font-weight:normal;font-size:7.32623px;line-height:1.25;font-family:sans-serif;baseline-shift:baseline;fill:#000000;fill-opacity:1;stroke:none;stroke-width:0.161533"
       xml:space="preserve"><tspan
         style="baseline-shift:baseline;stroke-width:0.161533"
         y="52.283852"
         x="52.432331"
         id="tspan3121"
         sodipodi:role="line">y<tspan
   style="font-size:65%;baseline-shift:sub"
   id="tspan5086">2</tspan></tspan></text>
    <text
       xml:space="preserve"
       style="font-style:normal;font-weight:normal;font-size:7.32623px;line-height:1.25;font-family:sans-serif;baseline-shift:baseline;fill:#000000;fill-opacity:1;stroke:none;stroke-width:0.161533"
       x="62.432331"
       y="52.279469"
       id="text3129"><tspan
         sodipodi:role="line"
         id="tspan3127"
         x="62.432331"
         y="52.279469"
         style="baseline-shift:baseline;stroke-width:0.161533">y<tspan
   style="font-size:65%;baseline-shift:sub"
   id="tspan5084">3</tspan></tspan></text>
    <text
       id="text5121"
       y="52.283852"
       x="72.432335"
       style="font-style:normal;font-weight:normal;font-size:7.32623px;line-height:1.25;font-family:sans-serif;baseline-shift:baseline;fill:#000000;fill-opacity:1;stroke:none;stroke-width:0.161533"
       xml:space="preserve"><tspan
         style="baseline-shift:baseline;stroke-width:0.161533"
         y="52.283852"
         x="72.432335"
         id="tspan5119"
         sodipodi:role="line">y<tspan
   style="font-size:65%;baseline-shift:sub"
   id="tspan5123">4</tspan></tspan></text>
    <text
       transform="scale(0.99994482,1.0000552)"
       id="text5163"
       y="17.893513"
       x="12.713622"
       style="font-style:normal;font-variant:normal;font-weight:normal;font-stretch:normal;font-size:7.32668px;line-height:1.25;font-family:sans-serif;-inkscape-font-specification:sans-serif;baseline-shift:baseline;fill:#000000;fill-opacity:1;stroke:none;stroke-width:0.161543"
       xml:space="preserve"><tspan
         style="font-style:normal;font-variant:normal;font-weight:normal;font-stretch:normal;font-family:sans-serif;-inkscape-font-specification:sans-serif;baseline-shift:baseline;stroke-width:0.161543"
         y="17.893513"
         x="12.713622"
         id="tspan5161"
         sodipodi:role="line">z<tspan
   id="tspan1447"
   style="font-size:65%;baseline-shift:sub">1</tspan></tspan></text>
    <text
       id="text1221"
       y="71.248528"
       x="98.712601"
       style="font-style:normal;font-variant:normal;font-weight:normal;font-stretch:normal;font-size:7.05556px;line-height:1.25;font-family:sans-serif;-inkscape-font-specification:'sans-serif, Normal';font-variant-ligatures:normal;font-variant-caps:normal;font-variant-numeric:normal;font-variant-east-asian:normal;fill:#000000;fill-opacity:1;stroke:none;stroke-width:0.264583"
       xml:space="preserve"><tspan
         style="font-style:normal;font-variant:normal;font-weight:normal;font-stretch:normal;font-size:7.05556px;font-family:sans-serif;-inkscape-font-specification:'sans-serif, Normal';font-variant-ligatures:normal;font-variant-caps:normal;font-variant-numeric:normal;font-variant-east-asian:normal;stroke-width:0.264583"
         y="71.248528"
         x="98.712601"
         id="tspan1219"
         sodipodi:role="line">Direction</tspan></text>
    <text
       transform="rotate(-90)"
       id="text1225"
       y="131.81108"
       x="-45.609135"
       style="font-style:normal;font-variant:normal;font-weight:normal;font-stretch:normal;font-size:7.05556px;line-height:1.25;font-family:sans-serif;-inkscape-font-specification:'sans-serif, Normal';font-variant-ligatures:normal;font-variant-caps:normal;font-variant-numeric:normal;font-variant-east-asian:normal;fill:#000000;fill-opacity:1;stroke:none;stroke-width:0.264583"
       xml:space="preserve"><tspan
         style="font-style:normal;font-variant:normal;font-weight:normal;font-stretch:normal;font-size:7.05556px;font-family:sans-serif;-inkscape-font-specification:'sans-serif, Normal';font-variant-ligatures:normal;font-variant-caps:normal;font-variant-numeric:normal;font-variant-east-asian:normal;stroke-width:0.264583"
         y="131.81108"
         x="-45.609135"
         id="tspan1223"
         sodipodi:role="line">Lattice</tspan></text>
    <text
       transform="rotate(-90,150.99797,117.27139)"
       id="text1229"
       y="108.11525"
       x="159.47752"
       style="font-style:normal;font-variant:normal;font-weight:normal;font-stretch:normal;font-size:7.05556px;line-height:1.25;font-family:sans-serif;-inkscape-font-specification:'sans-serif, Normal';font-variant-ligatures:normal;font-variant-caps:normal;font-variant-numeric:normal;font-variant-east-asian:normal;text-align:center;text-anchor:middle;white-space:pre;inline-size:33.6654;fill:#000000;fill-opacity:1;stroke:none;stroke-width:0.264583"
       xml:space="preserve"><tspan
         x="159.47752"
         y="108.11525"><tspan
           style="font-style:normal;font-variant:normal;font-weight:normal;font-stretch:normal;font-size:7.05556px;font-family:sans-serif;-inkscape-font-specification:'sans-serif, Normal';font-variant-ligatures:normal;font-variant-caps:normal;font-variant-numeric:normal;font-variant-east-asian:normal;text-align:center;text-anchor:middle;stroke-width:0.264583">Array
</tspan></tspan><tspan
         x="159.47752"
         y="116.9347"><tspan
           style="font-style:normal;font-variant:normal;font-weight:normal;font-stretch:normal;font-size:7.05556px;font-family:sans-serif;-inkscape-font-specification:'sans-serif, Normal';font-variant-ligatures:normal;font-variant-caps:normal;font-variant-numeric:normal;font-variant-east-asian:normal;text-align:center;text-anchor:middle;stroke-width:0.264583">Elements</tspan></tspan></text>
    <text
       xml:space="preserve"
       style="font-style:normal;font-weight:normal;font-size:7.32668px;line-height:1.25;font-family:sans-serif;baseline-shift:baseline;fill:#000000;fill-opacity:1;stroke:none;stroke-width:0.161543"
       x="22.714174"
       y="17.893513"
       id="text1247"
       transform="scale(0.99994481,1.0000552)"><tspan
         sodipodi:role="line"
         id="tspan1245"
         x="22.714174"
         y="17.893513"
         style="baseline-shift:baseline;stroke-width:0.161543">z<tspan
   id="tspan1449"
   style="font-size:65%;baseline-shift:sub">2</tspan></tspan></text>
    <text
       transform="scale(0.99994481,1.0000552)"
       id="text1253"
       y="17.893513"
       x="32.714725"
       style="font-style:normal;font-weight:normal;font-size:7.32668px;line-height:1.25;font-family:sans-serif;baseline-shift:baseline;fill:#000000;fill-opacity:1;stroke:none;stroke-width:0.161543"
       xml:space="preserve"><tspan
         style="baseline-shift:baseline;stroke-width:0.161543"
         y="17.893513"
         x="32.714725"
         id="tspan1251"
         sodipodi:role="line">z<tspan
   id="tspan1451"
   style="font-size:65%;baseline-shift:sub">3</tspan></tspan></text>
    <text
       xml:space="preserve"
       style="font-style:normal;font-weight:normal;font-size:7.32668px;line-height:1.25;font-family:sans-serif;baseline-shift:baseline;fill:#000000;fill-opacity:1;stroke:none;stroke-width:0.161543"
       x="42.715279"
       y="17.893513"
       id="text1259"
       transform="scale(0.99994481,1.0000552)"><tspan
         sodipodi:role="line"
         id="tspan1257"
         x="42.715279"
         y="17.893513"
         style="baseline-shift:baseline;stroke-width:0.161543">z<tspan
   id="tspan1453"
   style="font-size:65%;baseline-shift:sub">4</tspan></tspan></text>
    <text
       xml:space="preserve"
       style="font-style:normal;font-weight:normal;font-size:7.32675px;line-height:1.25;font-family:sans-serif;baseline-shift:baseline;fill:#000000;fill-opacity:1;stroke:none;stroke-width:0.161544"
       x="27.350479"
       y="35.46875"
       id="text1265"
       transform="scale(0.9999539,1.0000461)"><tspan
         sodipodi:role="line"
         id="tspan1263"
         x="27.350479"
         y="35.46875"
         style="baseline-shift:baseline;stroke-width:0.161544">x<tspan
   id="tspan1455"
   style="font-size:65%;baseline-shift:sub">1</tspan></tspan></text>
    <text
       transform="scale(0.99994481,1.0000552)"
       id="text1289"
       y="71.284996"
       x="57.134869"
       style="font-style:normal;font-weight:normal;font-size:7.32668px;line-height:1.25;font-family:sans-serif;baseline-shift:baseline;fill:#000000;fill-opacity:1;stroke:none;stroke-width:0.161543"
       xml:space="preserve"><tspan
         style="baseline-shift:baseline;stroke-width:0.161543"
         y="71.284996"
         x="57.134869"
         id="tspan1287"
         sodipodi:role="line">X</tspan></text>
    <text
       xml:space="preserve"
       style="font-style:normal;font-weight:normal;font-size:7.32668px;line-height:1.25;font-family:sans-serif;baseline-shift:baseline;fill:#000000;fill-opacity:1;stroke:none;stroke-width:0.161543"
       x="67.756706"
       y="71.284996"
       id="text1305"
       transform="scale(0.99994481,1.0000552)"><tspan
         sodipodi:role="line"
         id="tspan1303"
         x="67.756706"
         y="71.284996"
         style="baseline-shift:baseline;stroke-width:0.161543">Y</tspan></text>
    <text
       transform="scale(0.99994481,1.0000552)"
       id="text1309"
       y="71.284996"
       x="77.485367"
       style="font-style:normal;font-weight:normal;font-size:7.32668px;line-height:1.25;font-family:sans-serif;baseline-shift:baseline;fill:#000000;fill-opacity:1;stroke:none;stroke-width:0.161543"
       xml:space="preserve"><tspan
         style="baseline-shift:baseline;stroke-width:0.161543"
         y="71.284996"
         x="77.485367"
         id="tspan1307"
         sodipodi:role="line">Z</tspan></text>
    <text
       transform="scale(0.9999539,1.0000461)"
       id="text1337"
       y="35.46875"
       x="37.350941"
       style="font-style:normal;font-weight:normal;font-size:7.32675px;line-height:1.25;font-family:sans-serif;baseline-shift:baseline;fill:#000000;fill-opacity:1;stroke:none;stroke-width:0.161544"
       xml:space="preserve"><tspan
         style="baseline-shift:baseline;stroke-width:0.161544"
         y="35.46875"
         x="37.350941"
         id="tspan1335"
         sodipodi:role="line">x<tspan
   id="tspan1457"
   style="font-size:65%;baseline-shift:sub">2</tspan></tspan></text>
    <text
       xml:space="preserve"
       style="font-style:normal;font-weight:normal;font-size:7.32675px;line-height:1.25;font-family:sans-serif;baseline-shift:baseline;fill:#000000;fill-opacity:1;stroke:none;stroke-width:0.161544"
       x="47.351402"
       y="35.46875"
       id="text1341"
       transform="scale(0.9999539,1.0000461)"><tspan
         sodipodi:role="line"
         id="tspan1339"
         x="47.351402"
         y="35.46875"
         style="baseline-shift:baseline;stroke-width:0.161544">x<tspan
   id="tspan1459"
   style="font-size:65%;baseline-shift:sub">3</tspan></tspan></text>
    <text
       transform="scale(0.9999539,1.0000461)"
       id="text1345"
       y="35.46875"
       x="57.351864"
       style="font-style:normal;font-weight:normal;font-size:7.32675px;line-height:1.25;font-family:sans-serif;baseline-shift:baseline;fill:#000000;fill-opacity:1;stroke:none;stroke-width:0.161544"
       xml:space="preserve"><tspan
         style="baseline-shift:baseline;stroke-width:0.161544"
         y="35.46875"
         x="57.351864"
         id="tspan1343"
         sodipodi:role="line">x<tspan
   id="tspan1461"
   style="font-size:65%;baseline-shift:sub">4</tspan></tspan></text>
    <g
       transform="matrix(0.26458333,0,0,0.26458333,110.34315,-131.04069)"
       id="g1543">
      <g
         id="image"
         i:layer="yes"
         i:dimmedPercent="3"
         i:rgbTrio="#4F008000FFFF"
         transform="matrix(0.27189011,0,0,-1.0480169,35.012453,708.74633)">
			<switch
   i:objectNS="http://ns.adobe.com/Flows/1.0/"
   i:objectType="pointText"
   display="none"
   id="switch7"
   style="display:none">
				<foreignObject
   requiredExtensions="http://ns.adobe.com/Flows/1.0/"
   x="0"
   y="0"
   width="1"
   height="1"
   display="inline"
   overflow="visible"
   id="foreignObject9">
					<ns1:flowDef>
						<ns1:region
   textMatrix="1 0 0 1 0 0">
							<ns1:path
   d="M-37.6,148.4" />

						</ns1:region>

						<ns1:flow
   font-family="'LetterGothicStd'"
   font-size="200">
							<ns1:p>
  <ns1:span>}</ns1:span>
</ns1:p>

							<ns1:p />

						</ns1:flow>

					</ns1:flowDef>

					<ns2:targetRef
   xlink:href="#XMLID_1_" />

				</foreignObject>

				<text
   id="XMLID_1_"
   transform="translate(-37.6001,148.4004)"
   display="inline"
   style="line-height:0%;display:inline"><tspan
     x="0"
     y="0"
     font-size="200"
     id="tspan12"
     style="font-size:200px;font-family:LetterGothicStd">}</tspan></text>





			</switch>

			<g
   id="raster"
   i:knockout="Off">
				<path
   i:knockout="Off"
   d="M 19.8,25.8 C 19.8,11.2 15.6,2.2 0,0.4 L 0.4,0 C 23,0.4 29.2,7.2 29.2,29 v 30.2 c 0,13.4 1.4,19.8 16,23.4 V 83 c -14.4,3.6 -16,10 -16,23.2 v 32.2 c 0,21 -7.8,27 -28.8,27.6 L 0,165.601 c 16,-2.4 19.8,-10.4 19.8,-25.601 V 107.8 C 19.8,94.2 21.6,86.4 36.6,83 V 82.6 C 21.4,79 19.8,70.6 19.8,57 Z"
   id="path15"
   inkscape:connector-curvature="0" />

			</g>

		</g>
    </g>
    <g
       id="g1623"
       transform="matrix(0.26458333,0,0,0.23069882,120.25468,-34.821669)">
      <g
         transform="matrix(0.27189011,0,0,-1.0480169,35.012453,708.74633)"
         i:rgbTrio="#4F008000FFFF"
         i:dimmedPercent="3"
         i:layer="yes"
         id="g1621">
			<switch
   style="display:none"
   id="switch1615"
   display="none"
   i:objectType="pointText"
   i:objectNS="http://ns.adobe.com/Flows/1.0/">
				<foreignObject
   id="foreignObject9"
   overflow="visible"
   display="inline"
   height="1"
   width="1"
   y="0"
   x="0"
   requiredExtensions="http://ns.adobe.com/Flows/1.0/">
					<ns1:flowDef>
						<ns1:region
   textMatrix="1 0 0 1 0 0">
							<ns1:path
   d="M-37.6,148.4" />

						</ns1:region>

						<ns1:flow
   font-size="200"
   font-family="'LetterGothicStd'">
							<ns1:p>
  <ns1:span>}</ns1:span>
</ns1:p>

							<ns1:p />

						</ns1:flow>

					</ns1:flowDef>

					<ns2:targetRef
   xlink:href="#XMLID_1_" />

				</foreignObject>

				<text
   style="line-height:0%;display:inline"
   display="inline"
   transform="translate(-37.6001,148.4004)"
   id="text1613"><tspan
     style="font-size:200px;font-family:LetterGothicStd"
     id="tspan1611"
     font-size="200"
     y="0"
     x="0">}</tspan></text>





			</switch>

			<g
   i:knockout="Off"
   id="g1619">
				<path
   inkscape:connector-curvature="0"
   id="path1617"
   d="M 19.8,25.8 C 19.8,11.2 15.6,2.2 0,0.4 L 0.4,0 C 23,0.4 29.2,7.2 29.2,29 v 30.2 c 0,13.4 1.4,19.8 16,23.4 V 83 c -14.4,3.6 -16,10 -16,23.2 v 32.2 c 0,21 -7.8,27 -28.8,27.6 L 0,165.601 c 16,-2.4 19.8,-10.4 19.8,-25.601 V 107.8 C 19.8,94.2 21.6,86.4 36.6,83 V 82.6 C 21.4,79 19.8,70.6 19.8,57 Z"
   i:knockout="Off" />

			</g>

		</g>
    </g>
    <g
       transform="matrix(0.26458333,0,0,0.0603751,82.613107,31.079319)"
       id="g1649">
      <g
         id="g1647"
         i:layer="yes"
         i:dimmedPercent="3"
         i:rgbTrio="#4F008000FFFF"
         transform="matrix(0.27189011,0,0,-1.0480169,35.012453,708.74633)">
			<switch
   i:objectNS="http://ns.adobe.com/Flows/1.0/"
   i:objectType="pointText"
   display="none"
   id="switch1641"
   style="display:none">
				<foreignObject
   requiredExtensions="http://ns.adobe.com/Flows/1.0/"
   x="0"
   y="0"
   width="1"
   height="1"
   display="inline"
   overflow="visible"
   id="foreignObject9">
					<ns1:flowDef>
						<ns1:region
   textMatrix="1 0 0 1 0 0">
							<ns1:path
   d="M-37.6,148.4" />

						</ns1:region>

						<ns1:flow
   font-family="'LetterGothicStd'"
   font-size="200">
							<ns1:p>
  <ns1:span>}</ns1:span>
</ns1:p>

							<ns1:p />

						</ns1:flow>

					</ns1:flowDef>

					<ns2:targetRef
   xlink:href="#XMLID_1_" />

				</foreignObject>

				<text
   id="text1639"
   transform="translate(-37.6001,148.4004)"
   display="inline"
   style="line-height:0%;display:inline"><tspan
     x="0"
     y="0"
     font-size="200"
     id="tspan1637"
     style="font-size:200px;font-family:LetterGothicStd">}</tspan></text>





			</switch>

			<g
   id="g1645"
   i:knockout="Off">
				<path
   i:knockout="Off"
   d="M 19.8,25.8 C 19.8,11.2 15.6,2.2 0,0.4 L 0.4,0 C 23,0.4 29.2,7.2 29.2,29 v 30.2 c 0,13.4 1.4,19.8 16,23.4 V 83 c -14.4,3.6 -16,10 -16,23.2 v 32.2 c 0,21 -7.8,27 -28.8,27.6 L 0,165.601 c 16,-2.4 19.8,-10.4 19.8,-25.601 V 107.8 C 19.8,94.2 21.6,86.4 36.6,83 V 82.6 C 21.4,79 19.8,70.6 19.8,57 Z"
   id="path1643"
   inkscape:connector-curvature="0" />

			</g>

		</g>
    </g>
    <circle
       r="0.3605932"
       cy="15.891233"
       cx="53.432899"
       id="path1651"
       style="opacity:0.997231;fill:#000000;fill-opacity:1;stroke:none;stroke-width:0.0649999;stroke-miterlimit:4;stroke-dasharray:none;stroke-opacity:1" />
    <circle
       style="opacity:0.997231;fill:#000000;fill-opacity:1;stroke:none;stroke-width:0.0649999;stroke-miterlimit:4;stroke-dasharray:none;stroke-opacity:1"
       id="circle1653"
       cx="55.354084"
       cy="15.891233"
       r="0.3605932" />
    <circle
       r="0.3605932"
       cy="15.891233"
       cx="57.275272"
       id="circle1655"
       style="opacity:0.997231;fill:#000000;fill-opacity:1;stroke:none;stroke-width:0.0649999;stroke-miterlimit:4;stroke-dasharray:none;stroke-opacity:1" />
    <circle
       style="opacity:0.997231;fill:#000000;fill-opacity:1;stroke:none;stroke-width:0.0649999;stroke-miterlimit:4;stroke-dasharray:none;stroke-opacity:1"
       id="circle1657"
       cx="68.431648"
       cy="33.466888"
       r="0.3605932" />
    <circle
       r="0.3605932"
       cy="33.466888"
       cx="70.352837"
       id="circle1659"
       style="opacity:0.997231;fill:#000000;fill-opacity:1;stroke:none;stroke-width:0.0649999;stroke-miterlimit:4;stroke-dasharray:none;stroke-opacity:1" />
    <circle
       style="opacity:0.997231;fill:#000000;fill-opacity:1;stroke:none;stroke-width:0.0649999;stroke-miterlimit:4;stroke-dasharray:none;stroke-opacity:1"
       id="circle1661"
       cx="72.274025"
       cy="33.466888"
       r="0.3605932" />
    <circle
       r="0.3605932"
       cy="51.042542"
       cx="83.431648"
       id="circle1663"
       style="opacity:0.997231;fill:#000000;fill-opacity:1;stroke:none;stroke-width:0.0649999;stroke-miterlimit:4;stroke-dasharray:none;stroke-opacity:1" />
    <circle
       style="opacity:0.997231;fill:#000000;fill-opacity:1;stroke:none;stroke-width:0.0649999;stroke-miterlimit:4;stroke-dasharray:none;stroke-opacity:1"
       id="circle1665"
       cx="85.352837"
       cy="51.042542"
       r="0.3605932" />
    <circle
       r="0.3605932"
       cy="51.042542"
       cx="87.274025"
       id="circle1667"
       style="opacity:0.997231;fill:#000000;fill-opacity:1;stroke:none;stroke-width:0.0649999;stroke-miterlimit:4;stroke-dasharray:none;stroke-opacity:1" />
    <text
       id="text1673"
       y="95.389343"
       x="56.784924"
       style="font-style:normal;font-weight:normal;font-size:7.32623px;line-height:1.25;font-family:sans-serif;baseline-shift:baseline;fill:#000000;fill-opacity:1;stroke:none;stroke-width:0.161533"
       xml:space="preserve"><tspan
         style="baseline-shift:baseline;stroke-width:0.161533"
         y="95.389343"
         x="56.784924"
         id="tspan1671"
         sodipodi:role="line">u<tspan
   id="tspan1681"
   style="font-size:65%;baseline-shift:sub">0</tspan></tspan></text>
    <text
       xml:space="preserve"
       style="font-style:normal;font-weight:normal;font-size:7.32623px;line-height:1.25;font-family:sans-serif;baseline-shift:baseline;fill:#000000;fill-opacity:1;stroke:none;stroke-width:0.161533"
       x="56.784924"
       y="125.38934"
       id="text1687"><tspan
         sodipodi:role="line"
         id="tspan1685"
         x="56.784924"
         y="125.38934"
         style="baseline-shift:baseline;stroke-width:0.161533">u<tspan
   id="tspan1705"
   style="font-size:65%;baseline-shift:sub">3</tspan></tspan></text>
    <text
       xml:space="preserve"
       style="font-style:normal;font-weight:normal;font-size:7.32623px;line-height:1.25;font-family:sans-serif;baseline-shift:baseline;fill:#000000;fill-opacity:1;stroke:none;stroke-width:0.161533"
       x="56.784924"
       y="115.38934"
       id="text1693"><tspan
         sodipodi:role="line"
         id="tspan1691"
         x="56.784924"
         y="115.38934"
         style="baseline-shift:baseline;stroke-width:0.161533">u<tspan
   id="tspan1703"
   style="font-size:65%;baseline-shift:sub">2</tspan></tspan></text>
    <text
       xml:space="preserve"
       style="font-style:normal;font-weight:normal;font-size:7.32623px;line-height:1.25;font-family:sans-serif;baseline-shift:baseline;fill:#000000;fill-opacity:1;stroke:none;stroke-width:0.161533"
       x="56.784924"
       y="105.38934"
       id="text1699"><tspan
         sodipodi:role="line"
         id="tspan1697"
         x="56.784924"
         y="105.38934"
         style="baseline-shift:baseline;stroke-width:0.161533">u<tspan
   id="tspan1701"
   style="font-size:65%;baseline-shift:sub">1</tspan></tspan></text>
  </g>
  <g
     style="display:inline;mix-blend-mode:normal"
     id="g2016"
     inkscape:groupmode="layer"
     inkscape:label="algebra">
    <path
       sodipodi:nodetypes="ccccc"
       d="M 90.351167,20.891233 H 20.357 l -10,-2.33e-4 -3.06e-4,-10 79.994473,2.33e-4"
       style="opacity:0.997231;fill:none;stroke:#000000;stroke-width:0.529167;stroke-miterlimit:4;stroke-dasharray:none"
       id="path1707" />
    <path
       id="path1709"
       style="opacity:0.997231;fill:none;stroke:#000000;stroke-width:0.529167;stroke-miterlimit:4;stroke-dasharray:none"
       d="m 95.352,38.466887 h -59.995 -10 v -10 h 69.995"
       sodipodi:nodetypes="ccccc" />
    <path
       sodipodi:nodetypes="ccccc"
       d="M 100.35283,56.042541 H 50.357 h -10 v -10 h 59.99583"
       style="opacity:0.997231;fill:none;stroke:#000000;stroke-width:0.529167;stroke-miterlimit:4;stroke-dasharray:none"
       id="path1711" />
    <path
       id="path1713"
       style="opacity:0.997231;fill:none;stroke:#000000;stroke-width:0.529167;stroke-miterlimit:4;stroke-dasharray:none"
       d="m 75.357,63.618195 h 10 v 10 h -10"
       sodipodi:nodetypes="cccc" />
    <path
       sodipodi:nodetypes="cccc"
       d="m 65.357,63.618195 h 10 v 10 h -10"
       style="opacity:0.997231;fill:none;stroke:#000000;stroke-width:0.529167;stroke-miterlimit:4;stroke-dasharray:none"
       id="path1715" />
    <path
       id="path1717"
       style="opacity:0.997231;fill:none;stroke:#000000;stroke-width:0.529167;stroke-miterlimit:4;stroke-dasharray:none"
       d="m 65.357,73.618195 h -10 v -10 h 10 z"
       sodipodi:nodetypes="ccccc" />
    <path
       inkscape:original-d="M 15.357,20.891233 V 33.467 h 8.620339"
       inkscape:path-effect="#path-effect2018"
       sodipodi:nodetypes="ccc"
       id="path1719"
       d="M 15.357,20.891233 V 31.08575 a 2.38125,2.38125 45 0 0 2.38125,2.38125 h 6.239089"
       style="opacity:0.997231;fill:none;stroke:#000000;stroke-width:0.529167;stroke-linecap:butt;stroke-linejoin:miter;stroke-miterlimit:4;stroke-dasharray:none;stroke-opacity:1;marker-end:url(#Arrow1Mend)" />
    <path
       style="opacity:0.997231;fill:none;stroke:#000000;stroke-width:0.529167;stroke-linecap:butt;stroke-linejoin:miter;stroke-miterlimit:4;stroke-dasharray:none;stroke-opacity:1;marker-end:url(#marker1811)"
       d="m 45.357,56.042541 v 10.194517 a 2.38125,2.38125 45 0 0 2.38125,2.38125 h 6.239089"
       id="path1721"
       sodipodi:nodetypes="ccc"
       inkscape:path-effect="#path-effect2020"
       inkscape:original-d="m 45.357,56.042541 v 12.575767 h 8.620339" />
    <path
       inkscape:original-d="m 30.357,38.466887 v 12.575767 h 8.620339"
       inkscape:path-effect="#path-effect2022"
       sodipodi:nodetypes="ccc"
       id="path1723"
       d="m 30.357,38.466887 v 10.194517 a 2.38125,2.38125 45 0 0 2.38125,2.38125 h 6.239089"
       style="opacity:0.997231;fill:none;stroke:#000000;stroke-width:0.529167;stroke-linecap:butt;stroke-linejoin:miter;stroke-miterlimit:4;stroke-dasharray:none;stroke-opacity:1;marker-end:url(#marker1923)" />
    <path
       sodipodi:nodetypes="cc"
       id="path1725"
       d="m 20.357,20.891233 v -10"
       style="opacity:0.997231;fill:none;stroke:#000000;stroke-width:0.529167;stroke-linecap:butt;stroke-linejoin:miter;stroke-miterlimit:4;stroke-dasharray:none;stroke-opacity:1" />
    <path
       style="opacity:0.997231;fill:none;stroke:#000000;stroke-width:0.529167;stroke-linecap:butt;stroke-linejoin:miter;stroke-miterlimit:4;stroke-dasharray:none;stroke-opacity:1"
       d="m 30.356167,20.891233 v -10"
       id="path1727"
       sodipodi:nodetypes="cc" />
    <path
       sodipodi:nodetypes="cc"
       id="path1729"
       d="m 40.355333,20.891233 v -10"
       style="opacity:0.997231;fill:none;stroke:#000000;stroke-width:0.529167;stroke-linecap:butt;stroke-linejoin:miter;stroke-miterlimit:4;stroke-dasharray:none;stroke-opacity:1" />
    <path
       style="opacity:0.997231;fill:none;stroke:#000000;stroke-width:0.529167;stroke-linecap:butt;stroke-linejoin:miter;stroke-miterlimit:4;stroke-dasharray:none;stroke-opacity:1"
       d="m 50.3545,20.891233 v -10"
       id="path1731"
       sodipodi:nodetypes="cc" />
    <path
       sodipodi:nodetypes="cc"
       id="path1733"
       d="m 60.353667,20.891233 v -10"
       style="opacity:0.997231;fill:none;stroke:#000000;stroke-width:0.529167;stroke-linecap:butt;stroke-linejoin:miter;stroke-miterlimit:4;stroke-dasharray:none;stroke-opacity:1" />
    <path
       style="opacity:0.997231;fill:none;stroke:#000000;stroke-width:0.529167;stroke-linecap:butt;stroke-linejoin:miter;stroke-miterlimit:4;stroke-dasharray:none;stroke-opacity:1"
       d="m 70.352833,20.891233 v -10"
       id="path1735"
       sodipodi:nodetypes="cc" />
    <path
       sodipodi:nodetypes="cc"
       id="path1737"
       d="m 80.352,20.891233 v -10"
       style="opacity:0.997231;fill:none;stroke:#000000;stroke-width:0.529167;stroke-linecap:butt;stroke-linejoin:miter;stroke-miterlimit:4;stroke-dasharray:none;stroke-opacity:1" />
    <path
       style="opacity:0.997231;fill:none;stroke:#000000;stroke-width:0.529167;stroke-linecap:butt;stroke-linejoin:miter;stroke-miterlimit:4;stroke-dasharray:0.529167, 0.529167;stroke-dashoffset:0;stroke-opacity:1"
       d="m 90.351167,20.891233 v -10"
       id="path1739"
       sodipodi:nodetypes="cc" />
    <path
       sodipodi:nodetypes="cc"
       id="path1741"
       d="m 100.35033,20.891233 v -10"
       style="opacity:0.997231;fill:none;stroke:#000000;stroke-width:0.529167;stroke-linecap:butt;stroke-linejoin:miter;stroke-miterlimit:4;stroke-dasharray:0.529167, 0.529167;stroke-dashoffset:0;stroke-opacity:1" />
    <path
       style="opacity:0.997231;fill:none;stroke:#000000;stroke-width:0.529167;stroke-linecap:butt;stroke-linejoin:miter;stroke-miterlimit:4;stroke-dasharray:0.529167, 0.529167;stroke-dashoffset:0;stroke-opacity:1"
       d="m 110.3495,20.891233 v -10"
       id="path1743"
       sodipodi:nodetypes="cc" />
    <path
       style="opacity:0.997231;fill:none;stroke:#000000;stroke-width:0.529167;stroke-linecap:butt;stroke-linejoin:miter;stroke-miterlimit:4;stroke-dasharray:none;stroke-opacity:1"
       d="m 35.357,38.466887 v -10"
       id="path1745"
       sodipodi:nodetypes="cc" />
    <path
       sodipodi:nodetypes="cc"
       id="path1747"
       d="m 45.356167,38.466887 v -10"
       style="opacity:0.997231;fill:none;stroke:#000000;stroke-width:0.529167;stroke-linecap:butt;stroke-linejoin:miter;stroke-miterlimit:4;stroke-dasharray:none;stroke-opacity:1" />
    <path
       style="opacity:0.997231;fill:none;stroke:#000000;stroke-width:0.529167;stroke-linecap:butt;stroke-linejoin:miter;stroke-miterlimit:4;stroke-dasharray:none;stroke-opacity:1"
       d="m 55.355333,38.466887 v -10"
       id="path1749"
       sodipodi:nodetypes="cc" />
    <path
       sodipodi:nodetypes="cc"
       id="path1751"
       d="m 65.3545,38.466887 v -10"
       style="opacity:0.997231;fill:none;stroke:#000000;stroke-width:0.529167;stroke-linecap:butt;stroke-linejoin:miter;stroke-miterlimit:4;stroke-dasharray:none;stroke-opacity:1" />
    <path
       style="opacity:0.997231;fill:none;stroke:#000000;stroke-width:0.529167;stroke-linecap:butt;stroke-linejoin:miter;stroke-miterlimit:4;stroke-dasharray:none;stroke-opacity:1"
       d="m 75.353667,38.466887 v -10"
       id="path1753"
       sodipodi:nodetypes="cc" />
    <path
       sodipodi:nodetypes="cc"
       id="path1755"
       d="m 85.352833,38.466887 v -10"
       style="opacity:0.997231;fill:none;stroke:#000000;stroke-width:0.529167;stroke-linecap:butt;stroke-linejoin:miter;stroke-miterlimit:4;stroke-dasharray:none;stroke-opacity:1" />
    <path
       style="opacity:0.997231;fill:none;stroke:#000000;stroke-width:0.529167;stroke-linecap:butt;stroke-linejoin:miter;stroke-miterlimit:4;stroke-dasharray:0.529167, 0.529167;stroke-dashoffset:0;stroke-opacity:1"
       d="m 95.352,38.466887 v -10"
       id="path1757"
       sodipodi:nodetypes="cc" />
    <path
       sodipodi:nodetypes="cc"
       id="path1759"
       d="m 105.35117,38.466887 v -10"
       style="opacity:0.997231;fill:none;stroke:#000000;stroke-width:0.529167;stroke-linecap:butt;stroke-linejoin:miter;stroke-miterlimit:4;stroke-dasharray:0.529167, 0.529167;stroke-dashoffset:0;stroke-opacity:1" />
    <path
       style="opacity:0.997231;fill:none;stroke:#000000;stroke-width:0.529167;stroke-linecap:butt;stroke-linejoin:miter;stroke-miterlimit:4;stroke-dasharray:0.529167, 0.529167;stroke-dashoffset:0;stroke-opacity:1"
       d="m 115.35033,38.466887 v -10"
       id="path1761"
       sodipodi:nodetypes="cc" />
    <path
       sodipodi:nodetypes="cc"
       id="path1763"
       d="m 50.357,56.042541 v -10"
       style="opacity:0.997231;fill:none;stroke:#000000;stroke-width:0.529167;stroke-linecap:butt;stroke-linejoin:miter;stroke-miterlimit:4;stroke-dasharray:none;stroke-opacity:1" />
    <path
       style="opacity:0.997231;fill:none;stroke:#000000;stroke-width:0.529167;stroke-linecap:butt;stroke-linejoin:miter;stroke-miterlimit:4;stroke-dasharray:none;stroke-opacity:1"
       d="m 60.356167,56.042541 v -10"
       id="path1765"
       sodipodi:nodetypes="cc" />
    <path
       sodipodi:nodetypes="cc"
       id="path1767"
       d="m 70.355333,56.042541 v -10"
       style="opacity:0.997231;fill:none;stroke:#000000;stroke-width:0.529167;stroke-linecap:butt;stroke-linejoin:miter;stroke-miterlimit:4;stroke-dasharray:none;stroke-opacity:1" />
    <path
       style="opacity:0.997231;fill:none;stroke:#000000;stroke-width:0.529167;stroke-linecap:butt;stroke-linejoin:miter;stroke-miterlimit:4;stroke-dasharray:none;stroke-opacity:1"
       d="m 80.3545,56.042541 v -10"
       id="path1769"
       sodipodi:nodetypes="cc" />
    <path
       sodipodi:nodetypes="cc"
       id="path1771"
       d="m 90.353667,56.042541 v -10"
       style="opacity:0.997231;fill:none;stroke:#000000;stroke-width:0.529167;stroke-linecap:butt;stroke-linejoin:miter;stroke-miterlimit:4;stroke-dasharray:none;stroke-opacity:1" />
    <path
       style="opacity:0.997231;fill:none;stroke:#000000;stroke-width:0.529167;stroke-linecap:butt;stroke-linejoin:miter;stroke-miterlimit:4;stroke-dasharray:0.529167, 0.529167;stroke-dashoffset:0;stroke-opacity:1"
       d="m 100.35283,56.042541 v -10"
       id="path1773"
       sodipodi:nodetypes="cc" />
    <path
       sodipodi:nodetypes="cc"
       id="path1775"
       d="m 110.352,56.042541 v -10"
       style="opacity:0.997231;fill:none;stroke:#000000;stroke-width:0.529167;stroke-linecap:butt;stroke-linejoin:miter;stroke-miterlimit:4;stroke-dasharray:0.529167, 0.529167;stroke-dashoffset:0;stroke-opacity:1" />
    <path
       sodipodi:nodetypes="cccc"
       d="M 55.357,108.6182 V 98.618195 h 10 V 108.6182"
       style="opacity:0.992245;fill:none;stroke:#000000;stroke-width:0.529167;stroke-miterlimit:4;stroke-dasharray:none"
       id="path1797" />
    <path
       id="path1799"
       style="opacity:0.992245;fill:none;stroke:#000000;stroke-width:0.529167;stroke-miterlimit:4;stroke-dasharray:none"
       d="m 55.357,118.6182 v -10 h 10 v 10 z"
       sodipodi:nodetypes="ccccc" />
    <path
       id="path1803"
       style="opacity:0.992245;fill:none;stroke:#000000;stroke-width:0.529167;stroke-miterlimit:4;stroke-dasharray:none"
       d="M 55.357,98.618195 V 88.61819 h 10 v 10.000005"
       sodipodi:nodetypes="cccc" />
    <path
       sodipodi:nodetypes="cc"
       id="path1807"
       d="M 60.356998,73.618195 V 87.30124"
       style="opacity:0.997231;fill:none;stroke:#000000;stroke-width:0.529167;stroke-linecap:butt;stroke-linejoin:miter;stroke-miterlimit:4;stroke-dasharray:none;stroke-opacity:1;marker-end:url(#marker2257)" />
    <path
       sodipodi:nodetypes="cc"
       id="path1810"
       d="m 70.356999,73.618195 9.415459,12.947182"
       style="opacity:0.997231;fill:none;stroke:#000000;stroke-width:0.529167;stroke-linecap:butt;stroke-linejoin:miter;stroke-miterlimit:4;stroke-dasharray:none;stroke-opacity:1;marker-end:url(#marker2357)" />
    <path
       sodipodi:nodetypes="cc"
       id="path1812"
       d="M 80.357,73.618195 99.603613,86.784407"
       style="opacity:0.997231;fill:none;stroke:#000000;stroke-width:0.529167;stroke-linecap:butt;stroke-linejoin:miter;stroke-miterlimit:4;stroke-dasharray:none;stroke-opacity:1;marker-end:url(#marker2451)" />
    <path
       inkscape:original-d="m 60.357,118.6182 v 10 h 10 V 78.618 h 10 v 10"
       inkscape:path-effect="#path-effect2024"
       sodipodi:nodetypes="cccccc"
       id="path1814"
       d="m 60.357,118.6182 v 6.56042 a 3.4395833,3.4395833 45 0 0 3.439583,3.43958 h 3.120834 A 3.4395833,3.4395833 135 0 0 70.357,125.17862 V 82.057583 A 3.4395833,3.4395833 135 0 1 73.796583,78.618 h 3.120834 A 3.4395833,3.4395833 45 0 1 80.357,82.057583 V 88.618"
       style="opacity:0.997231;fill:none;stroke:#000000;stroke-width:0.529167;stroke-linecap:butt;stroke-linejoin:miter;stroke-miterlimit:4;stroke-dasharray:1.05833, 1.05833;stroke-dashoffset:0;stroke-opacity:1;marker-start:url(#marker2036);marker-end:url(#marker2046)" />
    <path
       sodipodi:nodetypes="cccc"
       d="M 115.357,108.6182 V 98.618195 h 10 V 108.6182"
       style="opacity:0.997231;fill:none;stroke:#000000;stroke-width:0.529167;stroke-miterlimit:4;stroke-dasharray:0.529167, 0.529167;stroke-dashoffset:0"
       id="path1820" />
    <path
       id="path1822"
       style="opacity:0.997231;fill:none;stroke:#000000;stroke-width:0.529167;stroke-miterlimit:4;stroke-dasharray:0.529167, 0.529167;stroke-dashoffset:0"
       d="M 115.357,98.618195 V 88.61819 h 10 v 10.000005"
       sodipodi:nodetypes="cccc" />
    <path
       id="path1824"
       d="M 116.18359,10.891233 H 90.351167"
       style="opacity:0.997231;fill:none;stroke:#000000;stroke-width:0.529167;stroke-linecap:butt;stroke-linejoin:miter;stroke-miterlimit:4;stroke-dasharray:0.529167, 0.529167;stroke-dashoffset:0;stroke-opacity:1" />
    <path
       id="path1826"
       d="M 116.18359,20.891233 H 90.351167"
       style="opacity:0.997231;fill:none;stroke:#000000;stroke-width:0.529167;stroke-linecap:butt;stroke-linejoin:miter;stroke-miterlimit:4;stroke-dasharray:0.529167, 0.529167;stroke-dashoffset:0;stroke-opacity:1" />
    <path
       id="path1828"
       d="M 95.351998,28.466886 H 116.18359"
       style="opacity:0.997231;fill:none;stroke:#000000;stroke-width:0.529167;stroke-linecap:butt;stroke-linejoin:miter;stroke-miterlimit:4;stroke-dasharray:0.529167, 0.529167;stroke-dashoffset:0;stroke-opacity:1" />
    <path
       id="path1830"
       d="M 95.351998,38.466887 H 116.18359"
       style="opacity:0.997231;fill:none;stroke:#000000;stroke-width:0.529167;stroke-linecap:butt;stroke-linejoin:miter;stroke-miterlimit:4;stroke-dasharray:0.529167, 0.529167;stroke-dashoffset:0;stroke-opacity:1" />
    <path
       id="path1832"
       d="m 100.35283,46.04254 h 15.83076"
       style="opacity:0.997231;fill:none;stroke:#000000;stroke-width:0.529167;stroke-linecap:butt;stroke-linejoin:miter;stroke-miterlimit:4;stroke-dasharray:0.529167, 0.529167;stroke-dashoffset:0;stroke-opacity:1" />
    <path
       id="path1834"
       d="m 100.35283,56.042541 h 15.83076"
       style="opacity:0.997231;fill:none;stroke:#000000;stroke-width:0.529167;stroke-linecap:butt;stroke-linejoin:miter;stroke-miterlimit:4;stroke-dasharray:0.529167, 0.529167;stroke-dashoffset:0;stroke-opacity:1" />
    <text
       id="text1840"
       y="52.283852"
       x="42.432331"
       style="font-style:normal;font-weight:normal;font-size:7.32623px;line-height:1.25;font-family:sans-serif;baseline-shift:baseline;fill:#000000;fill-opacity:1;stroke:none;stroke-width:0.161533"
       xml:space="preserve"><tspan
         style="baseline-shift:baseline;stroke-width:0.161533"
         y="52.283852"
         x="42.432331"
         id="tspan1838"
         sodipodi:role="line">y<tspan
   id="tspan1836"
   style="font-size:4.76205px;baseline-shift:sub;stroke-width:0.161533">1</tspan></tspan></text>
    <text
       xml:space="preserve"
       style="font-style:normal;font-weight:normal;font-size:7.32623px;line-height:1.25;font-family:sans-serif;baseline-shift:baseline;fill:#000000;fill-opacity:1;stroke:none;stroke-width:0.161533"
       x="52.432331"
       y="52.283852"
       id="text1846"><tspan
         sodipodi:role="line"
         id="tspan1844"
         x="52.432331"
         y="52.283852"
         style="baseline-shift:baseline;stroke-width:0.161533">y<tspan
   id="tspan1842"
   style="font-size:65%;baseline-shift:sub">2</tspan></tspan></text>
    <text
       id="text1852"
       y="52.279469"
       x="62.432331"
       style="font-style:normal;font-weight:normal;font-size:7.32623px;line-height:1.25;font-family:sans-serif;baseline-shift:baseline;fill:#000000;fill-opacity:1;stroke:none;stroke-width:0.161533"
       xml:space="preserve"><tspan
         style="baseline-shift:baseline;stroke-width:0.161533"
         y="52.279469"
         x="62.432331"
         id="tspan1850"
         sodipodi:role="line">y<tspan
   id="tspan1848"
   style="font-size:65%;baseline-shift:sub">3</tspan></tspan></text>
    <text
       xml:space="preserve"
       style="font-style:normal;font-weight:normal;font-size:7.32623px;line-height:1.25;font-family:sans-serif;baseline-shift:baseline;fill:#000000;fill-opacity:1;stroke:none;stroke-width:0.161533"
       x="72.432335"
       y="52.283852"
       id="text1858"><tspan
         sodipodi:role="line"
         id="tspan1856"
         x="72.432335"
         y="52.283852"
         style="baseline-shift:baseline;stroke-width:0.161533">y<tspan
   id="tspan1854"
   style="font-size:65%;baseline-shift:sub">4</tspan></tspan></text>
    <text
       xml:space="preserve"
       style="font-style:normal;font-variant:normal;font-weight:normal;font-stretch:normal;font-size:7.32668px;line-height:1.25;font-family:sans-serif;-inkscape-font-specification:sans-serif;baseline-shift:baseline;fill:#000000;fill-opacity:1;stroke:none;stroke-width:0.161543"
       x="12.713622"
       y="17.893513"
       id="text1864"
       transform="scale(0.99994482,1.0000552)"><tspan
         sodipodi:role="line"
         id="tspan1862"
         x="12.713622"
         y="17.893513"
         style="font-style:normal;font-variant:normal;font-weight:normal;font-stretch:normal;font-family:sans-serif;-inkscape-font-specification:sans-serif;baseline-shift:baseline;stroke-width:0.161543">z<tspan
   style="font-size:65%;baseline-shift:sub"
   id="tspan1860">1</tspan></tspan></text>
    <text
       xml:space="preserve"
       style="font-style:normal;font-variant:normal;font-weight:normal;font-stretch:normal;font-size:7.05556px;line-height:1.25;font-family:sans-serif;-inkscape-font-specification:'sans-serif, Normal';font-variant-ligatures:normal;font-variant-caps:normal;font-variant-numeric:normal;font-variant-east-asian:normal;fill:#000000;fill-opacity:1;stroke:none;stroke-width:0.264583"
       x="98.712601"
       y="71.248528"
       id="text1868"><tspan
         sodipodi:role="line"
         id="tspan1866"
         x="98.712601"
         y="71.248528"
         style="font-style:normal;font-variant:normal;font-weight:normal;font-stretch:normal;font-size:7.05556px;font-family:sans-serif;-inkscape-font-specification:'sans-serif, Normal';font-variant-ligatures:normal;font-variant-caps:normal;font-variant-numeric:normal;font-variant-east-asian:normal;stroke-width:0.264583">Direction</tspan></text>
    <text
       xml:space="preserve"
       style="font-style:normal;font-variant:normal;font-weight:normal;font-stretch:normal;font-size:7.05556px;line-height:1.25;font-family:sans-serif;-inkscape-font-specification:'sans-serif, Normal';font-variant-ligatures:normal;font-variant-caps:normal;font-variant-numeric:normal;font-variant-east-asian:normal;fill:#000000;fill-opacity:1;stroke:none;stroke-width:0.264583"
       x="-45.609135"
       y="131.81108"
       id="text1872"
       transform="rotate(-90)"><tspan
         sodipodi:role="line"
         id="tspan1870"
         x="-45.609135"
         y="131.81108"
         style="font-style:normal;font-variant:normal;font-weight:normal;font-stretch:normal;font-size:7.05556px;font-family:sans-serif;-inkscape-font-specification:'sans-serif, Normal';font-variant-ligatures:normal;font-variant-caps:normal;font-variant-numeric:normal;font-variant-east-asian:normal;stroke-width:0.264583">Lattice</tspan></text>
    <text
       xml:space="preserve"
       style="font-style:normal;font-variant:normal;font-weight:normal;font-stretch:normal;font-size:7.05556px;line-height:1.25;font-family:sans-serif;-inkscape-font-specification:'sans-serif, Normal';font-variant-ligatures:normal;font-variant-caps:normal;font-variant-numeric:normal;font-variant-east-asian:normal;text-align:center;text-anchor:middle;white-space:pre;inline-size:33.6654;fill:#000000;fill-opacity:1;stroke:none;stroke-width:0.264583"
       x="159.47752"
       y="108.11525"
       id="text1876"
       transform="rotate(-90,148.49822,114.77164)"><tspan
         x="159.47752"
         y="108.11525"><tspan
           style="font-style:normal;font-variant:normal;font-weight:normal;font-stretch:normal;font-size:7.05556px;font-family:sans-serif;-inkscape-font-specification:'sans-serif, Normal';font-variant-ligatures:normal;font-variant-caps:normal;font-variant-numeric:normal;font-variant-east-asian:normal;text-align:center;text-anchor:middle;stroke-width:0.264583">Array
</tspan></tspan><tspan
         x="159.47752"
         y="116.9347"><tspan
           style="font-style:normal;font-variant:normal;font-weight:normal;font-stretch:normal;font-size:7.05556px;font-family:sans-serif;-inkscape-font-specification:'sans-serif, Normal';font-variant-ligatures:normal;font-variant-caps:normal;font-variant-numeric:normal;font-variant-east-asian:normal;text-align:center;text-anchor:middle;stroke-width:0.264583">Elements</tspan></tspan></text>
    <text
       transform="scale(0.99994481,1.0000552)"
       id="text1882"
       y="17.893513"
       x="22.714174"
       style="font-style:normal;font-weight:normal;font-size:7.32668px;line-height:1.25;font-family:sans-serif;baseline-shift:baseline;fill:#000000;fill-opacity:1;stroke:none;stroke-width:0.161543"
       xml:space="preserve"><tspan
         style="baseline-shift:baseline;stroke-width:0.161543"
         y="17.893513"
         x="22.714174"
         id="tspan1880"
         sodipodi:role="line">z<tspan
   style="font-size:65%;baseline-shift:sub"
   id="tspan1878">2</tspan></tspan></text>
    <text
       xml:space="preserve"
       style="font-style:normal;font-weight:normal;font-size:7.32668px;line-height:1.25;font-family:sans-serif;baseline-shift:baseline;fill:#000000;fill-opacity:1;stroke:none;stroke-width:0.161543"
       x="32.714725"
       y="17.893513"
       id="text1888"
       transform="scale(0.99994481,1.0000552)"><tspan
         sodipodi:role="line"
         id="tspan1886"
         x="32.714725"
         y="17.893513"
         style="baseline-shift:baseline;stroke-width:0.161543">z<tspan
   style="font-size:65%;baseline-shift:sub"
   id="tspan1884">3</tspan></tspan></text>
    <text
       transform="scale(0.99994481,1.0000552)"
       id="text1894"
       y="17.893513"
       x="42.715279"
       style="font-style:normal;font-weight:normal;font-size:7.32668px;line-height:1.25;font-family:sans-serif;baseline-shift:baseline;fill:#000000;fill-opacity:1;stroke:none;stroke-width:0.161543"
       xml:space="preserve"><tspan
         style="baseline-shift:baseline;stroke-width:0.161543"
         y="17.893513"
         x="42.715279"
         id="tspan1892"
         sodipodi:role="line">z<tspan
   style="font-size:65%;baseline-shift:sub"
   id="tspan1890">4</tspan></tspan></text>
    <text
       transform="scale(0.9999539,1.0000461)"
       id="text1900"
       y="35.46875"
       x="27.350479"
       style="font-style:normal;font-weight:normal;font-size:7.32675px;line-height:1.25;font-family:sans-serif;baseline-shift:baseline;fill:#000000;fill-opacity:1;stroke:none;stroke-width:0.161544"
       xml:space="preserve"><tspan
         style="baseline-shift:baseline;stroke-width:0.161544"
         y="35.46875"
         x="27.350479"
         id="tspan1898"
         sodipodi:role="line">x<tspan
   style="font-size:65%;baseline-shift:sub"
   id="tspan1896">1</tspan></tspan></text>
    <text
       xml:space="preserve"
       style="font-style:normal;font-weight:normal;font-size:7.32668px;line-height:1.25;font-family:sans-serif;baseline-shift:baseline;fill:#000000;fill-opacity:1;stroke:none;stroke-width:0.161543"
       x="57.134869"
       y="71.284996"
       id="text1904"
       transform="scale(0.99994481,1.0000552)"><tspan
         sodipodi:role="line"
         id="tspan1902"
         x="57.134869"
         y="71.284996"
         style="baseline-shift:baseline;stroke-width:0.161543">X</tspan></text>
    <text
       transform="scale(0.99994481,1.0000552)"
       id="text1908"
       y="71.284996"
       x="67.756706"
       style="font-style:normal;font-weight:normal;font-size:7.32668px;line-height:1.25;font-family:sans-serif;baseline-shift:baseline;fill:#000000;fill-opacity:1;stroke:none;stroke-width:0.161543"
       xml:space="preserve"><tspan
         style="baseline-shift:baseline;stroke-width:0.161543"
         y="71.284996"
         x="67.756706"
         id="tspan1906"
         sodipodi:role="line">Y</tspan></text>
    <text
       xml:space="preserve"
       style="font-style:normal;font-weight:normal;font-size:7.32668px;line-height:1.25;font-family:sans-serif;baseline-shift:baseline;fill:#000000;fill-opacity:1;stroke:none;stroke-width:0.161543"
       x="77.485367"
       y="71.284996"
       id="text1912"
       transform="scale(0.99994481,1.0000552)"><tspan
         sodipodi:role="line"
         id="tspan1910"
         x="77.485367"
         y="71.284996"
         style="baseline-shift:baseline;stroke-width:0.161543">Z</tspan></text>
    <text
       xml:space="preserve"
       style="font-style:normal;font-weight:normal;font-size:7.32675px;line-height:1.25;font-family:sans-serif;baseline-shift:baseline;fill:#000000;fill-opacity:1;stroke:none;stroke-width:0.161544"
       x="37.350941"
       y="35.46875"
       id="text1918"
       transform="scale(0.9999539,1.0000461)"><tspan
         sodipodi:role="line"
         id="tspan1916"
         x="37.350941"
         y="35.46875"
         style="baseline-shift:baseline;stroke-width:0.161544">x<tspan
   style="font-size:65%;baseline-shift:sub"
   id="tspan1914">2</tspan></tspan></text>
    <text
       transform="scale(0.9999539,1.0000461)"
       id="text1924"
       y="35.46875"
       x="47.351402"
       style="font-style:normal;font-weight:normal;font-size:7.32675px;line-height:1.25;font-family:sans-serif;baseline-shift:baseline;fill:#000000;fill-opacity:1;stroke:none;stroke-width:0.161544"
       xml:space="preserve"><tspan
         style="baseline-shift:baseline;stroke-width:0.161544"
         y="35.46875"
         x="47.351402"
         id="tspan1922"
         sodipodi:role="line">x<tspan
   style="font-size:65%;baseline-shift:sub"
   id="tspan1920">3</tspan></tspan></text>
    <text
       xml:space="preserve"
       style="font-style:normal;font-weight:normal;font-size:7.32675px;line-height:1.25;font-family:sans-serif;baseline-shift:baseline;fill:#000000;fill-opacity:1;stroke:none;stroke-width:0.161544"
       x="57.351864"
       y="35.46875"
       id="text1930"
       transform="scale(0.9999539,1.0000461)"><tspan
         sodipodi:role="line"
         id="tspan1928"
         x="57.351864"
         y="35.46875"
         style="baseline-shift:baseline;stroke-width:0.161544">x<tspan
   style="font-size:65%;baseline-shift:sub"
   id="tspan1926">4</tspan></tspan></text>
    <g
       id="g1944"
       transform="matrix(0.26458333,0,0,0.26458333,110.34315,-131.04069)">
      <g
         transform="matrix(0.27189011,0,0,-1.0480169,35.012453,708.74633)"
         i:rgbTrio="#4F008000FFFF"
         i:dimmedPercent="3"
         i:layer="yes"
         id="g1942">
			<switch
   style="display:none"
   id="switch1936"
   display="none"
   i:objectType="pointText"
   i:objectNS="http://ns.adobe.com/Flows/1.0/">
				<foreignObject
   id="foreignObject9"
   overflow="visible"
   display="inline"
   height="1"
   width="1"
   y="0"
   x="0"
   requiredExtensions="http://ns.adobe.com/Flows/1.0/">
					<ns1:flowDef>
						<ns1:region
   textMatrix="1 0 0 1 0 0">
							<ns1:path
   d="M-37.6,148.4" />

						</ns1:region>

						<ns1:flow
   font-size="200"
   font-family="'LetterGothicStd'">
							<ns1:p>
  <ns1:span>}</ns1:span>
</ns1:p>

							<ns1:p />

						</ns1:flow>

					</ns1:flowDef>

					<ns2:targetRef
   xlink:href="#XMLID_1_" />

				</foreignObject>

				<text
   style="line-height:0%;display:inline"
   display="inline"
   transform="translate(-37.6001,148.4004)"
   id="text1934"><tspan
     style="font-size:200px;font-family:LetterGothicStd"
     id="tspan1932"
     font-size="200"
     y="0"
     x="0">}</tspan></text>





			</switch>

			<g
   i:knockout="Off"
   id="g1940">
				<path
   inkscape:connector-curvature="0"
   id="path1938"
   d="M 19.8,25.8 C 19.8,11.2 15.6,2.2 0,0.4 L 0.4,0 C 23,0.4 29.2,7.2 29.2,29 v 30.2 c 0,13.4 1.4,19.8 16,23.4 V 83 c -14.4,3.6 -16,10 -16,23.2 v 32.2 c 0,21 -7.8,27 -28.8,27.6 L 0,165.601 c 16,-2.4 19.8,-10.4 19.8,-25.601 V 107.8 C 19.8,94.2 21.6,86.4 36.6,83 V 82.6 C 21.4,79 19.8,70.6 19.8,57 Z"
   i:knockout="Off" />

			</g>

		</g>
    </g>
    <g
       transform="matrix(0.26458333,0,0,0.17135033,120.25468,-3.0835471)"
       id="g1958">
      <g
         id="g1956"
         i:layer="yes"
         i:dimmedPercent="3"
         i:rgbTrio="#4F008000FFFF"
         transform="matrix(0.27189011,0,0,-1.0480169,35.012453,708.74633)">
			<switch
   i:objectNS="http://ns.adobe.com/Flows/1.0/"
   i:objectType="pointText"
   display="none"
   id="switch1950"
   style="display:none">
				<foreignObject
   requiredExtensions="http://ns.adobe.com/Flows/1.0/"
   x="0"
   y="0"
   width="1"
   height="1"
   display="inline"
   overflow="visible"
   id="foreignObject9">
					<ns1:flowDef>
						<ns1:region
   textMatrix="1 0 0 1 0 0">
							<ns1:path
   d="M-37.6,148.4" />

						</ns1:region>

						<ns1:flow
   font-family="'LetterGothicStd'"
   font-size="200">
							<ns1:p>
  <ns1:span>}</ns1:span>
</ns1:p>

							<ns1:p />

						</ns1:flow>

					</ns1:flowDef>

					<ns2:targetRef
   xlink:href="#XMLID_1_" />

				</foreignObject>

				<text
   id="text1948"
   transform="translate(-37.6001,148.4004)"
   display="inline"
   style="line-height:0%;display:inline"><tspan
     x="0"
     y="0"
     font-size="200"
     id="tspan1946"
     style="font-size:200px;font-family:LetterGothicStd">}</tspan></text>





			</switch>

			<g
   id="g1954"
   i:knockout="Off">
				<path
   i:knockout="Off"
   d="M 19.8,25.8 C 19.8,11.2 15.6,2.2 0,0.4 L 0.4,0 C 23,0.4 29.2,7.2 29.2,29 v 30.2 c 0,13.4 1.4,19.8 16,23.4 V 83 c -14.4,3.6 -16,10 -16,23.2 v 32.2 c 0,21 -7.8,27 -28.8,27.6 L 0,165.601 c 16,-2.4 19.8,-10.4 19.8,-25.601 V 107.8 C 19.8,94.2 21.6,86.4 36.6,83 V 82.6 C 21.4,79 19.8,70.6 19.8,57 Z"
   id="path1952"
   inkscape:connector-curvature="0" />

			</g>

		</g>
    </g>
    <g
       id="g1972"
       transform="matrix(0.26458333,0,0,0.0603751,82.613107,31.079319)">
      <g
         transform="matrix(0.27189011,0,0,-1.0480169,35.012453,708.74633)"
         i:rgbTrio="#4F008000FFFF"
         i:dimmedPercent="3"
         i:layer="yes"
         id="g1970">
			<switch
   style="display:none"
   id="switch1964"
   display="none"
   i:objectType="pointText"
   i:objectNS="http://ns.adobe.com/Flows/1.0/">
				<foreignObject
   id="foreignObject9"
   overflow="visible"
   display="inline"
   height="1"
   width="1"
   y="0"
   x="0"
   requiredExtensions="http://ns.adobe.com/Flows/1.0/">
					<ns1:flowDef>
						<ns1:region
   textMatrix="1 0 0 1 0 0">
							<ns1:path
   d="M-37.6,148.4" />

						</ns1:region>

						<ns1:flow
   font-size="200"
   font-family="'LetterGothicStd'">
							<ns1:p>
  <ns1:span>}</ns1:span>
</ns1:p>

							<ns1:p />

						</ns1:flow>

					</ns1:flowDef>

					<ns2:targetRef
   xlink:href="#XMLID_1_" />

				</foreignObject>

				<text
   style="line-height:0%;display:inline"
   display="inline"
   transform="translate(-37.6001,148.4004)"
   id="text1962"><tspan
     style="font-size:200px;font-family:LetterGothicStd"
     id="tspan1960"
     font-size="200"
     y="0"
     x="0">}</tspan></text>





			</switch>

			<g
   i:knockout="Off"
   id="g1968">
				<path
   inkscape:connector-curvature="0"
   id="path1966"
   d="M 19.8,25.8 C 19.8,11.2 15.6,2.2 0,0.4 L 0.4,0 C 23,0.4 29.2,7.2 29.2,29 v 30.2 c 0,13.4 1.4,19.8 16,23.4 V 83 c -14.4,3.6 -16,10 -16,23.2 v 32.2 c 0,21 -7.8,27 -28.8,27.6 L 0,165.601 c 16,-2.4 19.8,-10.4 19.8,-25.601 V 107.8 C 19.8,94.2 21.6,86.4 36.6,83 V 82.6 C 21.4,79 19.8,70.6 19.8,57 Z"
   i:knockout="Off" />

			</g>

		</g>
    </g>
    <circle
       style="opacity:0.997231;fill:#000000;fill-opacity:1;stroke:none;stroke-width:0.0649999;stroke-miterlimit:4;stroke-dasharray:none;stroke-opacity:1"
       id="circle1974"
       cx="53.432899"
       cy="15.891233"
       r="0.3605932" />
    <circle
       r="0.3605932"
       cy="15.891233"
       cx="55.354084"
       id="circle1976"
       style="opacity:0.997231;fill:#000000;fill-opacity:1;stroke:none;stroke-width:0.0649999;stroke-miterlimit:4;stroke-dasharray:none;stroke-opacity:1" />
    <circle
       style="opacity:0.997231;fill:#000000;fill-opacity:1;stroke:none;stroke-width:0.0649999;stroke-miterlimit:4;stroke-dasharray:none;stroke-opacity:1"
       id="circle1978"
       cx="57.275272"
       cy="15.891233"
       r="0.3605932" />
    <circle
       r="0.3605932"
       cy="33.466888"
       cx="68.431648"
       id="circle1980"
       style="opacity:0.997231;fill:#000000;fill-opacity:1;stroke:none;stroke-width:0.0649999;stroke-miterlimit:4;stroke-dasharray:none;stroke-opacity:1" />
    <circle
       style="opacity:0.997231;fill:#000000;fill-opacity:1;stroke:none;stroke-width:0.0649999;stroke-miterlimit:4;stroke-dasharray:none;stroke-opacity:1"
       id="circle1982"
       cx="70.352837"
       cy="33.466888"
       r="0.3605932" />
    <circle
       r="0.3605932"
       cy="33.466888"
       cx="72.274025"
       id="circle1984"
       style="opacity:0.997231;fill:#000000;fill-opacity:1;stroke:none;stroke-width:0.0649999;stroke-miterlimit:4;stroke-dasharray:none;stroke-opacity:1" />
    <circle
       style="opacity:0.997231;fill:#000000;fill-opacity:1;stroke:none;stroke-width:0.0649999;stroke-miterlimit:4;stroke-dasharray:none;stroke-opacity:1"
       id="circle1986"
       cx="83.431648"
       cy="51.042542"
       r="0.3605932" />
    <circle
       r="0.3605932"
       cy="51.042542"
       cx="85.352837"
       id="circle1988"
       style="opacity:0.997231;fill:#000000;fill-opacity:1;stroke:none;stroke-width:0.0649999;stroke-miterlimit:4;stroke-dasharray:none;stroke-opacity:1" />
    <circle
       style="opacity:0.997231;fill:#000000;fill-opacity:1;stroke:none;stroke-width:0.0649999;stroke-miterlimit:4;stroke-dasharray:none;stroke-opacity:1"
       id="circle1990"
       cx="87.274025"
       cy="51.042542"
       r="0.3605932" />
    <text
       xml:space="preserve"
       style="font-style:normal;font-weight:normal;font-size:7.32623px;line-height:1.25;font-family:sans-serif;baseline-shift:baseline;fill:#000000;fill-opacity:1;stroke:none;stroke-width:0.161533"
       x="56.784924"
       y="95.389343"
       id="text1996"><tspan
         sodipodi:role="line"
         id="tspan1994"
         x="56.784924"
         y="95.389343"
         style="baseline-shift:baseline;stroke-width:0.161533">a<tspan
   style="font-size:65%;baseline-shift:sub"
   id="tspan1992">1</tspan></tspan></text>
    <text
       id="text2008"
       y="115.38934"
       x="56.784924"
       style="font-style:normal;font-weight:normal;font-size:7.32623px;line-height:1.25;font-family:sans-serif;baseline-shift:baseline;fill:#000000;fill-opacity:1;stroke:none;stroke-width:0.161533"
       xml:space="preserve"><tspan
         style="baseline-shift:baseline;stroke-width:0.161533"
         y="115.38934"
         x="56.784924"
         id="tspan2006"
         sodipodi:role="line">a<tspan
   style="font-size:65%;baseline-shift:sub"
   id="tspan2004">3</tspan></tspan></text>
    <text
       id="text2014"
       y="105.38934"
       x="56.784924"
       style="font-style:normal;font-weight:normal;font-size:7.32623px;line-height:1.25;font-family:sans-serif;baseline-shift:baseline;fill:#000000;fill-opacity:1;stroke:none;stroke-width:0.161533"
       xml:space="preserve"><tspan
         style="baseline-shift:baseline;stroke-width:0.161533"
         y="105.38934"
         x="56.784924"
         id="tspan2012"
         sodipodi:role="line">a<tspan
   style="font-size:65%;baseline-shift:sub"
   id="tspan2010">2</tspan></tspan></text>
    <path
       id="path2512"
       style="opacity:0.992245;fill:none;stroke:#000000;stroke-width:0.529167;stroke-miterlimit:4;stroke-dasharray:none"
       d="M 75.357,108.6182 V 98.618195 h 10 V 108.6182"
       sodipodi:nodetypes="cccc" />
    <path
       sodipodi:nodetypes="ccccc"
       d="m 75.357,118.6182 v -10 h 10 v 10 z"
       style="opacity:0.992245;fill:none;stroke:#000000;stroke-width:0.529167;stroke-miterlimit:4;stroke-dasharray:none"
       id="path2514" />
    <path
       sodipodi:nodetypes="cccc"
       d="M 75.357,98.618195 V 88.61819 h 10 v 10.000005"
       style="opacity:0.992245;fill:none;stroke:#000000;stroke-width:0.529167;stroke-miterlimit:4;stroke-dasharray:none"
       id="path2516" />
    <path
       style="opacity:0.997231;fill:none;stroke:#000000;stroke-width:0.529167;stroke-linecap:butt;stroke-linejoin:miter;stroke-miterlimit:4;stroke-dasharray:1.05833, 1.05833;stroke-dashoffset:0;stroke-opacity:1;marker-start:url(#marker2524);marker-end:url(#marker2534)"
       d="m 80.357,118.6182 v 6.56042 a 3.4395833,3.4395833 45 0 0 3.439583,3.43958 h 3.120834 A 3.4395833,3.4395833 135 0 0 90.357,125.17862 V 82.057583 A 3.4395833,3.4395833 135 0 1 93.796583,78.618 h 3.120834 A 3.4395833,3.4395833 45 0 1 100.357,82.057583 V 88.618"
       id="path2518"
       sodipodi:nodetypes="cccccc"
       inkscape:path-effect="#path-effect2520"
       inkscape:original-d="m 80.357,118.6182 v 10 h 10 V 78.618 h 10 v 10" />
    <path
       sodipodi:nodetypes="cccc"
       d="M 95.357,108.6182 V 98.618195 h 10 V 108.6182"
       style="opacity:0.992245;fill:none;stroke:#000000;stroke-width:0.529167;stroke-miterlimit:4;stroke-dasharray:none"
       id="path2768" />
    <path
       id="path2770"
       style="opacity:0.992245;fill:none;stroke:#000000;stroke-width:0.529167;stroke-miterlimit:4;stroke-dasharray:none"
       d="m 95.357,118.6182 v -10 h 10 v 10 z"
       sodipodi:nodetypes="ccccc" />
    <path
       id="path2772"
       style="opacity:0.992245;fill:none;stroke:#000000;stroke-width:0.529167;stroke-miterlimit:4;stroke-dasharray:none"
       d="M 95.357,98.618195 V 88.61819 h 10 v 10.000005"
       sodipodi:nodetypes="cccc" />
    <path
       inkscape:original-d="m 100.357,118.6182 v 10 h 10 V 78.618 h 10 v 10"
       inkscape:path-effect="#path-effect2776"
       sodipodi:nodetypes="cccccc"
       id="path2774"
       d="m 100.357,118.6182 v 6.56042 a 3.4395833,3.4395833 45 0 0 3.43958,3.43958 h 3.12084 a 3.4395833,3.4395833 135 0 0 3.43958,-3.43958 V 82.057583 A 3.4395833,3.4395833 135 0 1 113.79658,78.618 h 3.12084 a 3.4395833,3.4395833 45 0 1 3.43958,3.439583 V 88.618"
       style="opacity:0.997231;fill:none;stroke:#000000;stroke-width:0.529167;stroke-linecap:butt;stroke-linejoin:miter;stroke-miterlimit:4;stroke-dasharray:1.05833, 1.05833;stroke-dashoffset:0;stroke-opacity:1;marker-start:url(#marker2780);marker-end:url(#marker2790)" />
  </g>
</svg>
